ERROR: File "tchecker/comp_inst_param_event_types.cif": Semantic error at line 27, column 10: Definition/instantiation parameter mismatch for the 1st parameter of "g.Pb": the event parameter is of type "bool", while the event used as argument has no type.
ERROR: File "tchecker/comp_inst_param_event_types.cif": Semantic error at line 40, column 10: Definition/instantiation parameter mismatch for the 1st parameter of "g.Pi": the event parameter is of type "int", while the event used as argument is of type "real".
ERROR: File "tchecker/comp_inst_param_event_types.cif": Semantic error at line 41, column 10: Definition/instantiation parameter mismatch for the 1st parameter of "g.Pr": the event parameter is of type "real", while the event used as argument is of type "int".
ERROR: File "tchecker/comp_inst_param_event_types.cif": Semantic error at line 50, column 14: Definition/instantiation parameter mismatch for the 1st parameter of "g.Pi12": the event parameter is of type "int[1..2]", while the event used as argument is of type "int[2..2]".
ERROR: File "tchecker/comp_inst_param_event_types.cif": Semantic error at line 61, column 11: Definition/instantiation parameter mismatch for the 1st parameter of "g.Ps": the event parameter is of type "string", while the event used as argument has no type.
ERROR: File "tchecker/comp_inst_param_event_types.cif": Semantic error at line 63, column 11: Definition/instantiation parameter mismatch for the 1st parameter of "g.Ps": the event parameter is of type "string", while the event used as argument is of type "void".
ERROR: File "tchecker/comp_inst_param_event_types.cif": Semantic error at line 65, column 11: Definition/instantiation parameter mismatch for the 1st parameter of "g.Pv": the event parameter is of type "void", while the event used as argument has no type.
ERROR: File "tchecker/comp_inst_param_event_types.cif": Semantic error at line 66, column 11: Definition/instantiation parameter mismatch for the 1st parameter of "g.Pv": the event parameter is of type "void", while the event used as argument is of type "string".
ERROR: Failed to load CIF file "tchecker/comp_inst_param_event_types.cif": the file has errors.
