<?xml version="1.0" encoding="UTF-8" standalone="no"?>
<graphml xmlns:xsi="http://www.w3.org/2001/XMLSchema-instance" xmlns:y="http://www.yworks.com/xml/graphml" xsi:schemaLocation="http://graphml.graphdrawing.org/xmlns http://www.yworks.com/xml/schema/graphml/1.1/ygraphml.xsd" xmlns="http://graphml.graphdrawing.org/xmlns">
  <key for="node" id="ng" yfiles.type="nodegraphics"/>
  <key for="edge" id="eg" yfiles.type="edgegraphics"/>
  <key attr.name="description" attr.type="string" for="node" id="dn"/>
  <graph edgedefault="undirected" id="cif:">
    <node id="cif::box0" yfiles.foldertype="folder">
      <graph edgedefault="undirected" id="cif::box0:">
        <node id="cif:Send" yfiles.foldertype="folder">
          <data key="dn">automaton def Send()</data>
          <data key="ng">
            <y:ProxyAutoBoundsNode>
              <y:Realizers active="1">
                <y:GroupNode>
                  <y:NodeLabel alignment="left" autoSizePolicy="node_width" backgroundColor="#40c0ff" fontStyle="plain" modelName="internal" modelPosition="t">&lt;html&gt;&amp;nbsp;&amp;nbsp;&amp;nbsp;&amp;nbsp;&amp;nbsp;&lt;span style="color:#0000ff;"&gt;automaton&lt;/span&gt;&amp;nbsp;&lt;span style="color:#0000ff;"&gt;def&lt;/span&gt;&amp;nbsp;&lt;span style="color:#000000;"&gt;Send&lt;/span&gt;&lt;span style="color:#402020;"&gt;()&lt;/span&gt;&lt;/html&gt;</y:NodeLabel>
                  <y:Fill color="#eeeeee"/>
                  <y:Shape type="rectangle"/>
                  <y:State closed="false"/>
                </y:GroupNode>
                <y:GroupNode>
                  <y:Geometry height="<height>" width="<width>"/>
                  <y:NodeLabel alignment="left" autoSizePolicy="node_width" backgroundColor="#40c0ff" fontStyle="plain" modelName="internal" modelPosition="t">&lt;html&gt;&amp;nbsp;&amp;nbsp;&amp;nbsp;&amp;nbsp;&amp;nbsp;&lt;span style="color:#0000ff;"&gt;automaton&lt;/span&gt;&amp;nbsp;&lt;span style="color:#0000ff;"&gt;def&lt;/span&gt;&amp;nbsp;&lt;span style="color:#000000;"&gt;Send&lt;/span&gt;&lt;span style="color:#402020;"&gt;()&lt;/span&gt;&lt;/html&gt;</y:NodeLabel>
                  <y:Fill color="#cccccc"/>
                  <y:Shape type="rectangle"/>
                  <y:State closed="true"/>
                </y:GroupNode>
              </y:Realizers>
            </y:ProxyAutoBoundsNode>
          </data>
          <graph edgedefault="undirected" id="cif:Send:">
            <node id="cif:Send:s">
              <data key="dn">event s !?~</data>
              <data key="ng">
                <y:ShapeNode>
                  <y:Geometry width="<width>"/>
                  <y:NodeLabel alignment="center">&lt;html&gt;&lt;span style="color:#0000ff;"&gt;event&lt;/span&gt;&amp;nbsp;&lt;span style="color:#000000;"&gt;s&lt;/span&gt;&amp;nbsp;&lt;span style="color:#402020;"&gt;!?~&lt;/span&gt;&lt;/html&gt;</y:NodeLabel>
                  <y:BorderStyle type="dashed"/>
                  <y:Fill color="#ffe0c0"/>
                  <y:Shape type="octagon"/>
                </y:ShapeNode>
              </data>
            </node>
            <node id="cif:Send::evtref0">
              <data key="dn">s !</data>
              <data key="ng">
                <y:ShapeNode>
                  <y:Geometry height="<height>" width="<width>"/>
                  <y:NodeLabel alignment="center" fontSize="20">&lt;html&gt;&lt;span style="color:#402020;"&gt;!&lt;/span&gt;&lt;/html&gt;</y:NodeLabel>
                  <y:Fill color="#ffc080"/>
                  <y:Shape type="ellipse"/>
                </y:ShapeNode>
              </data>
            </node>
          </graph>
        </node>
        <node id="cif:Recv" yfiles.foldertype="folder">
          <data key="dn">automaton def Recv()</data>
          <data key="ng">
            <y:ProxyAutoBoundsNode>
              <y:Realizers active="1">
                <y:GroupNode>
                  <y:NodeLabel alignment="left" autoSizePolicy="node_width" backgroundColor="#40c0ff" fontStyle="plain" modelName="internal" modelPosition="t">&lt;html&gt;&amp;nbsp;&amp;nbsp;&amp;nbsp;&amp;nbsp;&amp;nbsp;&lt;span style="color:#0000ff;"&gt;automaton&lt;/span&gt;&amp;nbsp;&lt;span style="color:#0000ff;"&gt;def&lt;/span&gt;&amp;nbsp;&lt;span style="color:#000000;"&gt;Recv&lt;/span&gt;&lt;span style="color:#402020;"&gt;()&lt;/span&gt;&lt;/html&gt;</y:NodeLabel>
                  <y:Fill color="#eeeeee"/>
                  <y:Shape type="rectangle"/>
                  <y:State closed="false"/>
                </y:GroupNode>
                <y:GroupNode>
                  <y:Geometry height="<height>" width="<width>"/>
                  <y:NodeLabel alignment="left" autoSizePolicy="node_width" backgroundColor="#40c0ff" fontStyle="plain" modelName="internal" modelPosition="t">&lt;html&gt;&amp;nbsp;&amp;nbsp;&amp;nbsp;&amp;nbsp;&amp;nbsp;&lt;span style="color:#0000ff;"&gt;automaton&lt;/span&gt;&amp;nbsp;&lt;span style="color:#0000ff;"&gt;def&lt;/span&gt;&amp;nbsp;&lt;span style="color:#000000;"&gt;Recv&lt;/span&gt;&lt;span style="color:#402020;"&gt;()&lt;/span&gt;&lt;/html&gt;</y:NodeLabel>
                  <y:Fill color="#cccccc"/>
                  <y:Shape type="rectangle"/>
                  <y:State closed="true"/>
                </y:GroupNode>
              </y:Realizers>
            </y:ProxyAutoBoundsNode>
          </data>
          <graph edgedefault="undirected" id="cif:Recv:">
            <node id="cif:Recv:r">
              <data key="dn">event r !?~</data>
              <data key="ng">
                <y:ShapeNode>
                  <y:Geometry width="<width>"/>
                  <y:NodeLabel alignment="center">&lt;html&gt;&lt;span style="color:#0000ff;"&gt;event&lt;/span&gt;&amp;nbsp;&lt;span style="color:#000000;"&gt;r&lt;/span&gt;&amp;nbsp;&lt;span style="color:#402020;"&gt;!?~&lt;/span&gt;&lt;/html&gt;</y:NodeLabel>
                  <y:BorderStyle type="dashed"/>
                  <y:Fill color="#ffe0c0"/>
                  <y:Shape type="octagon"/>
                </y:ShapeNode>
              </data>
            </node>
            <node id="cif:Recv::evtref1">
              <data key="dn">r ?</data>
              <data key="ng">
                <y:ShapeNode>
                  <y:Geometry height="<height>" width="<width>"/>
                  <y:NodeLabel alignment="center" fontSize="20">&lt;html&gt;&lt;span style="color:#402020;"&gt;?&lt;/span&gt;&lt;/html&gt;</y:NodeLabel>
                  <y:Fill color="#ffc080"/>
                  <y:Shape type="ellipse"/>
                </y:ShapeNode>
              </data>
            </node>
          </graph>
        </node>
        <node id="cif:Sync" yfiles.foldertype="folder">
          <data key="dn">automaton def Sync()</data>
          <data key="ng">
            <y:ProxyAutoBoundsNode>
              <y:Realizers active="1">
                <y:GroupNode>
                  <y:NodeLabel alignment="left" autoSizePolicy="node_width" backgroundColor="#40c0ff" fontStyle="plain" modelName="internal" modelPosition="t">&lt;html&gt;&amp;nbsp;&amp;nbsp;&amp;nbsp;&amp;nbsp;&amp;nbsp;&lt;span style="color:#0000ff;"&gt;automaton&lt;/span&gt;&amp;nbsp;&lt;span style="color:#0000ff;"&gt;def&lt;/span&gt;&amp;nbsp;&lt;span style="color:#000000;"&gt;Sync&lt;/span&gt;&lt;span style="color:#402020;"&gt;()&lt;/span&gt;&lt;/html&gt;</y:NodeLabel>
                  <y:Fill color="#eeeeee"/>
                  <y:Shape type="rectangle"/>
                  <y:State closed="false"/>
                </y:GroupNode>
                <y:GroupNode>
                  <y:Geometry height="<height>" width="<width>"/>
                  <y:NodeLabel alignment="left" autoSizePolicy="node_width" backgroundColor="#40c0ff" fontStyle="plain" modelName="internal" modelPosition="t">&lt;html&gt;&amp;nbsp;&amp;nbsp;&amp;nbsp;&amp;nbsp;&amp;nbsp;&lt;span style="color:#0000ff;"&gt;automaton&lt;/span&gt;&amp;nbsp;&lt;span style="color:#0000ff;"&gt;def&lt;/span&gt;&amp;nbsp;&lt;span style="color:#000000;"&gt;Sync&lt;/span&gt;&lt;span style="color:#402020;"&gt;()&lt;/span&gt;&lt;/html&gt;</y:NodeLabel>
                  <y:Fill color="#cccccc"/>
                  <y:Shape type="rectangle"/>
                  <y:State closed="true"/>
                </y:GroupNode>
              </y:Realizers>
            </y:ProxyAutoBoundsNode>
          </data>
          <graph edgedefault="undirected" id="cif:Sync:">
            <node id="cif:Sync:c">
              <data key="dn">event c</data>
              <data key="ng">
                <y:ShapeNode>
                  <y:Geometry width="<width>"/>
                  <y:NodeLabel alignment="center">&lt;html&gt;&lt;span style="color:#0000ff;"&gt;event&lt;/span&gt;&amp;nbsp;&lt;span style="color:#000000;"&gt;c&lt;/span&gt;&lt;/html&gt;</y:NodeLabel>
                  <y:BorderStyle type="dashed"/>
                  <y:Fill color="#ffe0c0"/>
                  <y:Shape type="octagon"/>
                </y:ShapeNode>
              </data>
            </node>
            <node id="cif:Sync::evtref2">
              <data key="dn">c</data>
              <data key="ng">
                <y:ShapeNode>
                  <y:Geometry height="<height>" width="<width>"/>
                  <y:NodeLabel alignment="center" fontSize="20">&lt;html&gt;&lt;/html&gt;</y:NodeLabel>
                  <y:Fill color="#ffc080"/>
                  <y:Shape type="ellipse"/>
                </y:ShapeNode>
              </data>
            </node>
          </graph>
        </node>
      </graph>
      <data key="dn">Component definitions</data>
      <data key="ng">
        <y:ProxyAutoBoundsNode>
          <y:Realizers active="1">
            <y:GroupNode>
              <y:NodeLabel alignment="left" autoSizePolicy="node_width" backgroundColor="#80ff40" modelName="internal" modelPosition="t">     Component definitions</y:NodeLabel>
              <y:Fill color="#eeeeee"/>
              <y:Shape type="rectangle"/>
              <y:State closed="false"/>
            </y:GroupNode>
            <y:GroupNode>
              <y:Geometry height="<height>" width="<width>"/>
              <y:NodeLabel alignment="left" autoSizePolicy="node_width" backgroundColor="#80ff40" modelName="internal" modelPosition="t">     Component definitions</y:NodeLabel>
              <y:Fill color="#cccccc"/>
              <y:Shape type="rectangle"/>
              <y:State closed="true"/>
            </y:GroupNode>
          </y:Realizers>
        </y:ProxyAutoBoundsNode>
      </data>
    </node>
    <node id="cif::box1" yfiles.foldertype="folder">
      <graph edgedefault="undirected" id="cif::box1:">
        <node id="cif:send" yfiles.foldertype="folder">
          <data key="dn">send: Send()</data>
          <data key="ng">
            <y:ProxyAutoBoundsNode>
              <y:Realizers active="1">
                <y:GroupNode>
                  <y:NodeLabel alignment="left" autoSizePolicy="node_width" backgroundColor="#ff8000" fontStyle="plain" modelName="internal" modelPosition="t">&lt;html&gt;&amp;nbsp;&amp;nbsp;&amp;nbsp;&amp;nbsp;&amp;nbsp;&lt;span style="color:#000000;"&gt;send&lt;/span&gt;&lt;span style="color:#402020;"&gt;:&lt;/span&gt;&amp;nbsp;&lt;span style="color:#000000;"&gt;Send&lt;/span&gt;&lt;span style="color:#402020;"&gt;()&lt;/span&gt;&lt;/html&gt;</y:NodeLabel>
                  <y:Fill color="#eeeeee"/>
                  <y:Shape type="rectangle"/>
                  <y:State closed="false"/>
                </y:GroupNode>
                <y:GroupNode>
                  <y:Geometry height="<height>" width="<width>"/>
                  <y:NodeLabel alignment="left" autoSizePolicy="node_width" backgroundColor="#ff8000" fontStyle="plain" modelName="internal" modelPosition="t">&lt;html&gt;&amp;nbsp;&amp;nbsp;&amp;nbsp;&amp;nbsp;&amp;nbsp;&lt;span style="color:#000000;"&gt;send&lt;/span&gt;&lt;span style="color:#402020;"&gt;:&lt;/span&gt;&amp;nbsp;&lt;span style="color:#000000;"&gt;Send&lt;/span&gt;&lt;span style="color:#402020;"&gt;()&lt;/span&gt;&lt;/html&gt;</y:NodeLabel>
                  <y:Fill color="#cccccc"/>
                  <y:Shape type="rectangle"/>
                  <y:State closed="true"/>
                </y:GroupNode>
              </y:Realizers>
            </y:ProxyAutoBoundsNode>
          </data>
          <graph edgedefault="undirected" id="cif:send:">
            <node id="cif:send:s">
              <data key="dn">event s !?~</data>
              <data key="ng">
                <y:ShapeNode>
                  <y:Geometry width="<width>"/>
                  <y:NodeLabel alignment="center">&lt;html&gt;&lt;span style="color:#0000ff;"&gt;event&lt;/span&gt;&amp;nbsp;&lt;span style="color:#000000;"&gt;s&lt;/span&gt;&amp;nbsp;&lt;span style="color:#402020;"&gt;!?~&lt;/span&gt;&lt;/html&gt;</y:NodeLabel>
                  <y:BorderStyle type="dashed"/>
                  <y:Fill color="#ffe0c0"/>
                  <y:Shape type="octagon"/>
                </y:ShapeNode>
              </data>
            </node>
          </graph>
        </node>
        <node id="cif:recv" yfiles.foldertype="folder">
          <data key="dn">recv: Recv()</data>
          <data key="ng">
            <y:ProxyAutoBoundsNode>
              <y:Realizers active="1">
                <y:GroupNode>
                  <y:NodeLabel alignment="left" autoSizePolicy="node_width" backgroundColor="#ff8000" fontStyle="plain" modelName="internal" modelPosition="t">&lt;html&gt;&amp;nbsp;&amp;nbsp;&amp;nbsp;&amp;nbsp;&amp;nbsp;&lt;span style="color:#000000;"&gt;recv&lt;/span&gt;&lt;span style="color:#402020;"&gt;:&lt;/span&gt;&amp;nbsp;&lt;span style="color:#000000;"&gt;Recv&lt;/span&gt;&lt;span style="color:#402020;"&gt;()&lt;/span&gt;&lt;/html&gt;</y:NodeLabel>
                  <y:Fill color="#eeeeee"/>
                  <y:Shape type="rectangle"/>
                  <y:State closed="false"/>
                </y:GroupNode>
                <y:GroupNode>
                  <y:Geometry height="<height>" width="<width>"/>
                  <y:NodeLabel alignment="left" autoSizePolicy="node_width" backgroundColor="#ff8000" fontStyle="plain" modelName="internal" modelPosition="t">&lt;html&gt;&amp;nbsp;&amp;nbsp;&amp;nbsp;&amp;nbsp;&amp;nbsp;&lt;span style="color:#000000;"&gt;recv&lt;/span&gt;&lt;span style="color:#402020;"&gt;:&lt;/span&gt;&amp;nbsp;&lt;span style="color:#000000;"&gt;Recv&lt;/span&gt;&lt;span style="color:#402020;"&gt;()&lt;/span&gt;&lt;/html&gt;</y:NodeLabel>
                  <y:Fill color="#cccccc"/>
                  <y:Shape type="rectangle"/>
                  <y:State closed="true"/>
                </y:GroupNode>
              </y:Realizers>
            </y:ProxyAutoBoundsNode>
          </data>
          <graph edgedefault="undirected" id="cif:recv:">
            <node id="cif:recv:r">
              <data key="dn">event r !?~</data>
              <data key="ng">
                <y:ShapeNode>
                  <y:Geometry width="<width>"/>
                  <y:NodeLabel alignment="center">&lt;html&gt;&lt;span style="color:#0000ff;"&gt;event&lt;/span&gt;&amp;nbsp;&lt;span style="color:#000000;"&gt;r&lt;/span&gt;&amp;nbsp;&lt;span style="color:#402020;"&gt;!?~&lt;/span&gt;&lt;/html&gt;</y:NodeLabel>
                  <y:BorderStyle type="dashed"/>
                  <y:Fill color="#ffe0c0"/>
                  <y:Shape type="octagon"/>
                </y:ShapeNode>
              </data>
            </node>
          </graph>
        </node>
        <node id="cif:sync" yfiles.foldertype="folder">
          <data key="dn">sync: Sync()</data>
          <data key="ng">
            <y:ProxyAutoBoundsNode>
              <y:Realizers active="1">
                <y:GroupNode>
                  <y:NodeLabel alignment="left" autoSizePolicy="node_width" backgroundColor="#ff8000" fontStyle="plain" modelName="internal" modelPosition="t">&lt;html&gt;&amp;nbsp;&amp;nbsp;&amp;nbsp;&amp;nbsp;&amp;nbsp;&lt;span style="color:#000000;"&gt;sync&lt;/span&gt;&lt;span style="color:#402020;"&gt;:&lt;/span&gt;&amp;nbsp;&lt;span style="color:#000000;"&gt;Sync&lt;/span&gt;&lt;span style="color:#402020;"&gt;()&lt;/span&gt;&lt;/html&gt;</y:NodeLabel>
                  <y:Fill color="#eeeeee"/>
                  <y:Shape type="rectangle"/>
                  <y:State closed="false"/>
                </y:GroupNode>
                <y:GroupNode>
                  <y:Geometry height="<height>" width="<width>"/>
                  <y:NodeLabel alignment="left" autoSizePolicy="node_width" backgroundColor="#ff8000" fontStyle="plain" modelName="internal" modelPosition="t">&lt;html&gt;&amp;nbsp;&amp;nbsp;&amp;nbsp;&amp;nbsp;&amp;nbsp;&lt;span style="color:#000000;"&gt;sync&lt;/span&gt;&lt;span style="color:#402020;"&gt;:&lt;/span&gt;&amp;nbsp;&lt;span style="color:#000000;"&gt;Sync&lt;/span&gt;&lt;span style="color:#402020;"&gt;()&lt;/span&gt;&lt;/html&gt;</y:NodeLabel>
                  <y:Fill color="#cccccc"/>
                  <y:Shape type="rectangle"/>
                  <y:State closed="true"/>
                </y:GroupNode>
              </y:Realizers>
            </y:ProxyAutoBoundsNode>
          </data>
          <graph edgedefault="undirected" id="cif:sync:">
            <node id="cif:sync:c">
              <data key="dn">event c</data>
              <data key="ng">
                <y:ShapeNode>
                  <y:Geometry width="<width>"/>
                  <y:NodeLabel alignment="center">&lt;html&gt;&lt;span style="color:#0000ff;"&gt;event&lt;/span&gt;&amp;nbsp;&lt;span style="color:#000000;"&gt;c&lt;/span&gt;&lt;/html&gt;</y:NodeLabel>
                  <y:BorderStyle type="dashed"/>
                  <y:Fill color="#ffe0c0"/>
                  <y:Shape type="octagon"/>
                </y:ShapeNode>
              </data>
            </node>
          </graph>
        </node>
        <node id="cif:e">
          <data key="dn">event e !?~</data>
          <data key="ng">
            <y:ShapeNode>
              <y:Geometry width="<width>"/>
              <y:NodeLabel alignment="center">&lt;html&gt;&lt;span style="color:#0000ff;"&gt;event&lt;/span&gt;&amp;nbsp;&lt;span style="color:#000000;"&gt;e&lt;/span&gt;&amp;nbsp;&lt;span style="color:#402020;"&gt;!?~&lt;/span&gt;&lt;/html&gt;</y:NodeLabel>
              <y:BorderStyle width="2.0"/>
              <y:Fill color="#ffc000"/>
              <y:Shape type="rectangle"/>
            </y:ShapeNode>
          </data>
        </node>
      </graph>
      <data key="dn">Components</data>
      <data key="ng">
        <y:ProxyAutoBoundsNode>
          <y:Realizers active="1">
            <y:GroupNode>
              <y:NodeLabel alignment="left" autoSizePolicy="node_width" backgroundColor="#80ff40" modelName="internal" modelPosition="t">     Components</y:NodeLabel>
              <y:Fill color="#eeeeee"/>
              <y:Shape type="rectangle"/>
              <y:State closed="false"/>
            </y:GroupNode>
            <y:GroupNode>
              <y:Geometry height="<height>" width="<width>"/>
              <y:NodeLabel alignment="left" autoSizePolicy="node_width" backgroundColor="#80ff40" modelName="internal" modelPosition="t">     Components</y:NodeLabel>
              <y:Fill color="#cccccc"/>
              <y:Shape type="rectangle"/>
              <y:State closed="true"/>
            </y:GroupNode>
          </y:Realizers>
        </y:ProxyAutoBoundsNode>
      </data>
    </node>
    <edge directed="true" source="cif:Send::evtref0" target="cif:Send:s">
      <data key="eg">
        <y:PolyLineEdge>
          <y:Arrows source="none" target="arrow"/>
          <y:BendStyle smoothed="true"/>
        </y:PolyLineEdge>
      </data>
    </edge>
    <edge directed="true" source="cif:Recv:r" target="cif:Recv::evtref1">
      <data key="eg">
        <y:PolyLineEdge>
          <y:Arrows source="none" target="arrow"/>
          <y:BendStyle smoothed="true"/>
        </y:PolyLineEdge>
      </data>
    </edge>
    <edge directed="false" source="cif:Sync:c" target="cif:Sync::evtref2">
      <data key="eg">
        <y:PolyLineEdge>
          <y:Arrows source="none" target="none"/>
          <y:BendStyle smoothed="true"/>
        </y:PolyLineEdge>
      </data>
    </edge>
    <edge directed="false" source="cif:e" target="cif:send:s">
      <data key="eg">
        <y:PolyLineEdge>
          <y:Arrows source="none" target="none"/>
          <y:BendStyle smoothed="true"/>
        </y:PolyLineEdge>
      </data>
    </edge>
    <edge directed="false" source="cif:e" target="cif:recv:r">
      <data key="eg">
        <y:PolyLineEdge>
          <y:Arrows source="none" target="none"/>
          <y:BendStyle smoothed="true"/>
        </y:PolyLineEdge>
      </data>
    </edge>
    <edge directed="false" source="cif:e" target="cif:sync:c">
      <data key="eg">
        <y:PolyLineEdge>
          <y:Arrows source="none" target="none"/>
          <y:BendStyle smoothed="true"/>
        </y:PolyLineEdge>
      </data>
    </edge>
  </graph>
</graphml>
