<?xml version="1.0" encoding="UTF-8" standalone="no"?>
<graphml xmlns:xsi="http://www.w3.org/2001/XMLSchema-instance" xmlns:y="http://www.yworks.com/xml/graphml" xsi:schemaLocation="http://graphml.graphdrawing.org/xmlns http://www.yworks.com/xml/schema/graphml/1.1/ygraphml.xsd" xmlns="http://graphml.graphdrawing.org/xmlns">
  <key for="node" id="ng" yfiles.type="nodegraphics"/>
  <key for="edge" id="eg" yfiles.type="edgegraphics"/>
  <key attr.name="description" attr.type="string" for="node" id="dn"/>
  <graph edgedefault="directed" id="cif:">
    <node id="cif:A" yfiles.foldertype="group">
      <data key="dn">automaton def A(alg int p)</data>
      <data key="ng">
        <y:ProxyAutoBoundsNode>
          <y:Realizers active="0">
            <y:GroupNode>
              <y:NodeLabel alignment="left" autoSizePolicy="node_width" backgroundColor="#40c0ff" fontStyle="plain" modelName="internal" modelPosition="t">&lt;html&gt;&amp;nbsp;&amp;nbsp;&amp;nbsp;&amp;nbsp;&amp;nbsp;&lt;span style="color:#0000ff;"&gt;automaton&lt;/span&gt;&amp;nbsp;&lt;span style="color:#0000ff;"&gt;def&lt;/span&gt;&amp;nbsp;&lt;span style="color:#000000;"&gt;A&lt;/span&gt;&lt;span style="color:#402020;"&gt;(&lt;/span&gt;&lt;span style="color:#0000ff;"&gt;alg&lt;/span&gt;&amp;nbsp;&lt;span style="color:#0000ff;"&gt;int&lt;/span&gt;&amp;nbsp;&lt;span style="color:#000000;"&gt;p&lt;/span&gt;&lt;span style="color:#402020;"&gt;)&lt;/span&gt;&lt;/html&gt;</y:NodeLabel>
              <y:Fill color="#eeeeee"/>
              <y:Shape type="rectangle"/>
              <y:State closed="false"/>
            </y:GroupNode>
            <y:GroupNode>
              <y:Geometry height="<height>" width="<width>"/>
              <y:NodeLabel alignment="left" autoSizePolicy="node_width" backgroundColor="#40c0ff" fontStyle="plain" modelName="internal" modelPosition="t">&lt;html&gt;&amp;nbsp;&amp;nbsp;&amp;nbsp;&amp;nbsp;&amp;nbsp;&lt;span style="color:#0000ff;"&gt;automaton&lt;/span&gt;&amp;nbsp;&lt;span style="color:#0000ff;"&gt;def&lt;/span&gt;&amp;nbsp;&lt;span style="color:#000000;"&gt;A&lt;/span&gt;&lt;span style="color:#402020;"&gt;(&lt;/span&gt;&lt;span style="color:#0000ff;"&gt;alg&lt;/span&gt;&amp;nbsp;&lt;span style="color:#0000ff;"&gt;int&lt;/span&gt;&amp;nbsp;&lt;span style="color:#000000;"&gt;p&lt;/span&gt;&lt;span style="color:#402020;"&gt;)&lt;/span&gt;&lt;/html&gt;</y:NodeLabel>
              <y:Fill color="#cccccc"/>
              <y:Shape type="rectangle"/>
              <y:State closed="true"/>
            </y:GroupNode>
          </y:Realizers>
        </y:ProxyAutoBoundsNode>
      </data>
      <graph edgedefault="directed" id="cif:A:">
        <node id="cif:A::code" yfiles.foldertype="group">
          <data key="dn">Declarations</data>
          <data key="ng">
            <y:ProxyAutoBoundsNode>
              <y:Realizers active="0">
                <y:GroupNode>
                  <y:Geometry height="<height>" width="<width>"/>
                  <y:NodeLabel alignment="left" autoSizePolicy="node_width" backgroundColor="#eeee80" modelName="internal" modelPosition="t">     Declarations</y:NodeLabel>
                  <y:NodeLabel alignment="left" autoSizePolicy="content" borderDistance="18" bottomInset="3" leftInset="3" modelName="internal" modelPosition="t" rightInset="3" topInset="3">&lt;html&gt;&lt;span style="color:#0000ff;"&gt;disc&lt;/span&gt;&amp;nbsp;&lt;span style="color:#0000ff;"&gt;int&lt;/span&gt;&amp;nbsp;&lt;span style="color:#000000;"&gt;v&lt;/span&gt;&lt;span style="color:#402020;"&gt;;&lt;/span&gt;&lt;br&gt;&lt;br&gt;&lt;span style="color:#0000ff;"&gt;invariant&lt;/span&gt;&amp;nbsp;&lt;span style="color:#000000;"&gt;v&lt;/span&gt;&amp;nbsp;&lt;span style="color:#402020;"&gt;=&lt;/span&gt;&amp;nbsp;&lt;span style="color:#000000;"&gt;p&lt;/span&gt;&lt;span style="color:#402020;"&gt;;&lt;/span&gt;&lt;/html&gt;</y:NodeLabel>
                  <y:BorderStyle lineType="dashed"/>
                  <y:Fill color="#ffffcc"/>
                  <y:Shape type="rectangle"/>
                  <y:State closed="false"/>
                </y:GroupNode>
                <y:GroupNode>
                  <y:Geometry height="<height>" width="<width>"/>
                  <y:NodeLabel alignment="left" autoSizePolicy="node_width" backgroundColor="#eeee80" modelName="internal" modelPosition="t">     Declarations</y:NodeLabel>
                  <y:NodeLabel alignment="left" autoSizePolicy="content" borderDistance="18" bottomInset="3" leftInset="3" modelName="internal" modelPosition="t" rightInset="3" topInset="3">...</y:NodeLabel>
                  <y:BorderStyle lineType="dashed"/>
                  <y:Fill color="#ffffcc"/>
                  <y:Shape type="rectangle"/>
                  <y:State closed="true"/>
                </y:GroupNode>
              </y:Realizers>
            </y:ProxyAutoBoundsNode>
          </data>
        </node>
        <node id="cif:A::loc0">
          <data key="dn">location</data>
          <data key="ng">
            <y:ShapeNode>
              <y:Geometry height="<height>" width="<width>"/>
              <y:NodeLabel alignment="left" autoSizePolicy="content" modelName="internal" modelPosition="c">&lt;html&gt;&lt;/html&gt;</y:NodeLabel>
              <y:Fill color="#ccccff"/>
              <y:Shape type="roundrectangle"/>
            </y:ShapeNode>
          </data>
        </node>
        <node id="cif:A::loc0::init">
          <data key="dn">&lt;init&gt;</data>
          <data key="ng">
            <y:ShapeNode>
              <y:Geometry height="<height>" width="<width>"/>
              <y:BorderStyle hasColor="false"/>
              <y:Fill transparent="true"/>
            </y:ShapeNode>
          </data>
        </node>
        <edge source="cif:A::loc0::init" target="cif:A::loc0">
          <data key="eg">
            <y:PolyLineEdge>
              <y:Arrows source="none" target="arrow"/>
              <y:BendStyle smoothed="true"/>
            </y:PolyLineEdge>
          </data>
        </edge>
        <edge source="cif:A::loc0" target="cif:A::loc0">
          <data key="eg">
            <y:PolyLineEdge>
              <y:Arrows source="none" target="arrow"/>
              <y:BendStyle smoothed="true"/>
              <y:EdgeLabel alignment="center" backgroundColor="#eeeeee">&lt;html&gt;&lt;span style="color:#0000ff;"&gt;do&lt;/span&gt;&amp;nbsp;&lt;span style="color:#000000;"&gt;v&lt;/span&gt;&amp;nbsp;&lt;span style="color:#402020;"&gt;:=&lt;/span&gt;&amp;nbsp;&lt;span style="color:#000000;"&gt;p&lt;/span&gt;&lt;/html&gt;</y:EdgeLabel>
            </y:PolyLineEdge>
          </data>
        </edge>
      </graph>
    </node>
    <node id="cif:G" yfiles.foldertype="group">
      <data key="dn">group def G(alg int p)</data>
      <data key="ng">
        <y:ProxyAutoBoundsNode>
          <y:Realizers active="0">
            <y:GroupNode>
              <y:NodeLabel alignment="left" autoSizePolicy="node_width" backgroundColor="#40c0ff" fontStyle="italic" modelName="internal" modelPosition="t">&lt;html&gt;&amp;nbsp;&amp;nbsp;&amp;nbsp;&amp;nbsp;&amp;nbsp;&lt;span style="color:#0000ff;"&gt;group&lt;/span&gt;&amp;nbsp;&lt;span style="color:#0000ff;"&gt;def&lt;/span&gt;&amp;nbsp;&lt;span style="color:#000000;"&gt;G&lt;/span&gt;&lt;span style="color:#402020;"&gt;(&lt;/span&gt;&lt;span style="color:#0000ff;"&gt;alg&lt;/span&gt;&amp;nbsp;&lt;span style="color:#0000ff;"&gt;int&lt;/span&gt;&amp;nbsp;&lt;span style="color:#000000;"&gt;p&lt;/span&gt;&lt;span style="color:#402020;"&gt;)&lt;/span&gt;&lt;/html&gt;</y:NodeLabel>
              <y:Fill color="#eeeeee"/>
              <y:Shape type="rectangle"/>
              <y:State closed="false"/>
            </y:GroupNode>
            <y:GroupNode>
              <y:Geometry height="<height>" width="<width>"/>
              <y:NodeLabel alignment="left" autoSizePolicy="node_width" backgroundColor="#40c0ff" fontStyle="italic" modelName="internal" modelPosition="t">&lt;html&gt;&amp;nbsp;&amp;nbsp;&amp;nbsp;&amp;nbsp;&amp;nbsp;&lt;span style="color:#0000ff;"&gt;group&lt;/span&gt;&amp;nbsp;&lt;span style="color:#0000ff;"&gt;def&lt;/span&gt;&amp;nbsp;&lt;span style="color:#000000;"&gt;G&lt;/span&gt;&lt;span style="color:#402020;"&gt;(&lt;/span&gt;&lt;span style="color:#0000ff;"&gt;alg&lt;/span&gt;&amp;nbsp;&lt;span style="color:#0000ff;"&gt;int&lt;/span&gt;&amp;nbsp;&lt;span style="color:#000000;"&gt;p&lt;/span&gt;&lt;span style="color:#402020;"&gt;)&lt;/span&gt;&lt;/html&gt;</y:NodeLabel>
              <y:Fill color="#cccccc"/>
              <y:Shape type="rectangle"/>
              <y:State closed="true"/>
            </y:GroupNode>
          </y:Realizers>
        </y:ProxyAutoBoundsNode>
      </data>
      <graph edgedefault="directed" id="cif:G:">
        <node id="cif:G::code" yfiles.foldertype="group">
          <data key="dn">Declarations</data>
          <data key="ng">
            <y:ProxyAutoBoundsNode>
              <y:Realizers active="0">
                <y:GroupNode>
                  <y:Geometry height="<height>" width="<width>"/>
                  <y:NodeLabel alignment="left" autoSizePolicy="node_width" backgroundColor="#eeee80" modelName="internal" modelPosition="t">     Declarations</y:NodeLabel>
                  <y:NodeLabel alignment="left" autoSizePolicy="content" borderDistance="18" bottomInset="3" leftInset="3" modelName="internal" modelPosition="t" rightInset="3" topInset="3">&lt;html&gt;&lt;span style="color:#0000ff;"&gt;alg&lt;/span&gt;&amp;nbsp;&lt;span style="color:#0000ff;"&gt;int&lt;/span&gt;&amp;nbsp;&lt;span style="color:#000000;"&gt;pp&lt;/span&gt;&amp;nbsp;&lt;span style="color:#402020;"&gt;=&lt;/span&gt;&amp;nbsp;&lt;span style="color:#000000;"&gt;p&lt;/span&gt;&amp;nbsp;&lt;span style="color:#402020;"&gt;*&lt;/span&gt;&amp;nbsp;&lt;span style="color:#000000;"&gt;p&lt;/span&gt;&lt;span style="color:#402020;"&gt;;&lt;/span&gt;&lt;br&gt;&lt;br&gt;&lt;span style="color:#0000ff;"&gt;invariant&lt;/span&gt;&amp;nbsp;&lt;span style="color:#000000;"&gt;p&lt;/span&gt;&amp;nbsp;&lt;span style="color:#402020;"&gt;+&lt;/span&gt;&amp;nbsp;&lt;span style="color:#000000;"&gt;p&lt;/span&gt;&amp;nbsp;&lt;span style="color:#402020;"&gt;&amp;gt;&lt;/span&gt;&amp;nbsp;&lt;span style="color:#006100;"&gt;0&lt;/span&gt;&lt;span style="color:#402020;"&gt;;&lt;/span&gt;&lt;/html&gt;</y:NodeLabel>
                  <y:BorderStyle lineType="dashed"/>
                  <y:Fill color="#ffffcc"/>
                  <y:Shape type="rectangle"/>
                  <y:State closed="false"/>
                </y:GroupNode>
                <y:GroupNode>
                  <y:Geometry height="<height>" width="<width>"/>
                  <y:NodeLabel alignment="left" autoSizePolicy="node_width" backgroundColor="#eeee80" modelName="internal" modelPosition="t">     Declarations</y:NodeLabel>
                  <y:NodeLabel alignment="left" autoSizePolicy="content" borderDistance="18" bottomInset="3" leftInset="3" modelName="internal" modelPosition="t" rightInset="3" topInset="3">...</y:NodeLabel>
                  <y:BorderStyle lineType="dashed"/>
                  <y:Fill color="#ffffcc"/>
                  <y:Shape type="rectangle"/>
                  <y:State closed="true"/>
                </y:GroupNode>
              </y:Realizers>
            </y:ProxyAutoBoundsNode>
          </data>
        </node>
      </graph>
    </node>
    <node id="cif:aut1" yfiles.foldertype="group">
      <data key="dn">automaton aut1</data>
      <data key="ng">
        <y:ProxyAutoBoundsNode>
          <y:Realizers active="0">
            <y:GroupNode>
              <y:NodeLabel alignment="left" autoSizePolicy="node_width" backgroundColor="#ff0000" fontStyle="plain" modelName="internal" modelPosition="t">&lt;html&gt;&amp;nbsp;&amp;nbsp;&amp;nbsp;&amp;nbsp;&amp;nbsp;&lt;span style="color:#0000ff;"&gt;automaton&lt;/span&gt;&amp;nbsp;&lt;span style="color:#000000;"&gt;aut1&lt;/span&gt;&lt;/html&gt;</y:NodeLabel>
              <y:Fill color="#eeeeee"/>
              <y:Shape type="rectangle"/>
              <y:State closed="false"/>
            </y:GroupNode>
            <y:GroupNode>
              <y:Geometry height="<height>" width="<width>"/>
              <y:NodeLabel alignment="left" autoSizePolicy="node_width" backgroundColor="#ff0000" fontStyle="plain" modelName="internal" modelPosition="t">&lt;html&gt;&amp;nbsp;&amp;nbsp;&amp;nbsp;&amp;nbsp;&amp;nbsp;&lt;span style="color:#0000ff;"&gt;automaton&lt;/span&gt;&amp;nbsp;&lt;span style="color:#000000;"&gt;aut1&lt;/span&gt;&lt;/html&gt;</y:NodeLabel>
              <y:Fill color="#cccccc"/>
              <y:Shape type="rectangle"/>
              <y:State closed="true"/>
            </y:GroupNode>
          </y:Realizers>
        </y:ProxyAutoBoundsNode>
      </data>
      <graph edgedefault="directed" id="cif:aut1:">
        <node id="cif:aut1::code" yfiles.foldertype="group">
          <data key="dn">Declarations</data>
          <data key="ng">
            <y:ProxyAutoBoundsNode>
              <y:Realizers active="0">
                <y:GroupNode>
                  <y:Geometry height="<height>" width="<width>"/>
                  <y:NodeLabel alignment="left" autoSizePolicy="node_width" backgroundColor="#eeee80" modelName="internal" modelPosition="t">     Declarations</y:NodeLabel>
                  <y:NodeLabel alignment="left" autoSizePolicy="content" borderDistance="18" bottomInset="3" leftInset="3" modelName="internal" modelPosition="t" rightInset="3" topInset="3">&lt;html&gt;&lt;span style="color:#0000ff;"&gt;cont&lt;/span&gt;&amp;nbsp;&lt;span style="color:#000000;"&gt;c3&lt;/span&gt;&lt;span style="color:#402020;"&gt;;&lt;/span&gt;&lt;/html&gt;</y:NodeLabel>
                  <y:BorderStyle lineType="dashed"/>
                  <y:Fill color="#ffffcc"/>
                  <y:Shape type="rectangle"/>
                  <y:State closed="false"/>
                </y:GroupNode>
                <y:GroupNode>
                  <y:Geometry height="<height>" width="<width>"/>
                  <y:NodeLabel alignment="left" autoSizePolicy="node_width" backgroundColor="#eeee80" modelName="internal" modelPosition="t">     Declarations</y:NodeLabel>
                  <y:NodeLabel alignment="left" autoSizePolicy="content" borderDistance="18" bottomInset="3" leftInset="3" modelName="internal" modelPosition="t" rightInset="3" topInset="3">...</y:NodeLabel>
                  <y:BorderStyle lineType="dashed"/>
                  <y:Fill color="#ffffcc"/>
                  <y:Shape type="rectangle"/>
                  <y:State closed="true"/>
                </y:GroupNode>
              </y:Realizers>
            </y:ProxyAutoBoundsNode>
          </data>
        </node>
        <node id="cif:aut1::loc0">
          <data key="dn">location l1</data>
          <data key="ng">
            <y:ShapeNode>
              <y:Geometry height="<height>" width="<width>"/>
              <y:NodeLabel alignment="left" autoSizePolicy="content" modelName="internal" modelPosition="c">&lt;html&gt;&lt;span style="color:#000000;"&gt;l1&lt;/span&gt;&lt;br&gt;&lt;br&gt;&lt;span style="color:#0000ff;"&gt;equation&lt;/span&gt;&amp;nbsp;&lt;span style="color:#000000;"&gt;c3&lt;/span&gt;&lt;span style="color:#402020;"&gt;'&lt;/span&gt;&amp;nbsp;&lt;span style="color:#402020;"&gt;=&lt;/span&gt;&amp;nbsp;&lt;span style="color:#000000;"&gt;r&lt;/span&gt;&lt;span style="color:#402020;"&gt;;&lt;/span&gt;&lt;/html&gt;</y:NodeLabel>
              <y:Fill color="#ccccff"/>
              <y:Shape type="roundrectangle"/>
            </y:ShapeNode>
          </data>
        </node>
        <node id="cif:aut1::loc0::init">
          <data key="dn">&lt;init&gt;</data>
          <data key="ng">
            <y:ShapeNode>
              <y:Geometry height="<height>" width="<width>"/>
              <y:BorderStyle hasColor="false"/>
              <y:Fill transparent="true"/>
            </y:ShapeNode>
          </data>
        </node>
        <edge source="cif:aut1::loc0::init" target="cif:aut1::loc0">
          <data key="eg">
            <y:PolyLineEdge>
              <y:Arrows source="none" target="arrow"/>
              <y:BendStyle smoothed="true"/>
            </y:PolyLineEdge>
          </data>
        </edge>
        <edge source="cif:aut1::loc0" target="cif:aut1::loc1">
          <data key="eg">
            <y:PolyLineEdge>
              <y:Arrows source="none" target="arrow"/>
              <y:BendStyle smoothed="true"/>
              <y:EdgeLabel alignment="center" backgroundColor="#eeeeee">&lt;html&gt;&lt;span style="color:#0000ff;"&gt;tau&lt;/span&gt;&lt;/html&gt;</y:EdgeLabel>
            </y:PolyLineEdge>
          </data>
        </edge>
        <node id="cif:aut1::loc1">
          <data key="dn">location l2</data>
          <data key="ng">
            <y:ShapeNode>
              <y:Geometry height="<height>" width="<width>"/>
              <y:NodeLabel alignment="left" autoSizePolicy="content" modelName="internal" modelPosition="c">&lt;html&gt;&lt;span style="color:#000000;"&gt;l2&lt;/span&gt;&lt;br&gt;&lt;br&gt;&lt;span style="color:#0000ff;"&gt;equation&lt;/span&gt;&amp;nbsp;&lt;span style="color:#000000;"&gt;c3&lt;/span&gt;&lt;span style="color:#402020;"&gt;'&lt;/span&gt;&amp;nbsp;&lt;span style="color:#402020;"&gt;=&lt;/span&gt;&amp;nbsp;&lt;span style="color:#000000;"&gt;r&lt;/span&gt;&lt;span style="color:#402020;"&gt;;&lt;/span&gt;&lt;/html&gt;</y:NodeLabel>
              <y:Fill color="#ccccff"/>
              <y:Shape type="roundrectangle"/>
            </y:ShapeNode>
          </data>
        </node>
      </graph>
    </node>
    <node id="cif:aut2" yfiles.foldertype="group">
      <data key="dn">automaton aut2</data>
      <data key="ng">
        <y:ProxyAutoBoundsNode>
          <y:Realizers active="0">
            <y:GroupNode>
              <y:NodeLabel alignment="left" autoSizePolicy="node_width" backgroundColor="#ff0000" fontStyle="plain" modelName="internal" modelPosition="t">&lt;html&gt;&amp;nbsp;&amp;nbsp;&amp;nbsp;&amp;nbsp;&amp;nbsp;&lt;span style="color:#0000ff;"&gt;automaton&lt;/span&gt;&amp;nbsp;&lt;span style="color:#000000;"&gt;aut2&lt;/span&gt;&lt;/html&gt;</y:NodeLabel>
              <y:Fill color="#eeeeee"/>
              <y:Shape type="rectangle"/>
              <y:State closed="false"/>
            </y:GroupNode>
            <y:GroupNode>
              <y:Geometry height="<height>" width="<width>"/>
              <y:NodeLabel alignment="left" autoSizePolicy="node_width" backgroundColor="#ff0000" fontStyle="plain" modelName="internal" modelPosition="t">&lt;html&gt;&amp;nbsp;&amp;nbsp;&amp;nbsp;&amp;nbsp;&amp;nbsp;&lt;span style="color:#0000ff;"&gt;automaton&lt;/span&gt;&amp;nbsp;&lt;span style="color:#000000;"&gt;aut2&lt;/span&gt;&lt;/html&gt;</y:NodeLabel>
              <y:Fill color="#cccccc"/>
              <y:Shape type="rectangle"/>
              <y:State closed="true"/>
            </y:GroupNode>
          </y:Realizers>
        </y:ProxyAutoBoundsNode>
      </data>
      <graph edgedefault="directed" id="cif:aut2:">
        <node id="cif:aut2::code" yfiles.foldertype="group">
          <data key="dn">Declarations</data>
          <data key="ng">
            <y:ProxyAutoBoundsNode>
              <y:Realizers active="0">
                <y:GroupNode>
                  <y:Geometry height="<height>" width="<width>"/>
                  <y:NodeLabel alignment="left" autoSizePolicy="node_width" backgroundColor="#eeee80" modelName="internal" modelPosition="t">     Declarations</y:NodeLabel>
                  <y:NodeLabel alignment="left" autoSizePolicy="content" borderDistance="18" bottomInset="3" leftInset="3" modelName="internal" modelPosition="t" rightInset="3" topInset="3">&lt;html&gt;&lt;span style="color:#0000ff;"&gt;cont&lt;/span&gt;&amp;nbsp;&lt;span style="color:#000000;"&gt;c4&lt;/span&gt;&lt;span style="color:#402020;"&gt;;&lt;/span&gt;&lt;/html&gt;</y:NodeLabel>
                  <y:BorderStyle lineType="dashed"/>
                  <y:Fill color="#ffffcc"/>
                  <y:Shape type="rectangle"/>
                  <y:State closed="false"/>
                </y:GroupNode>
                <y:GroupNode>
                  <y:Geometry height="<height>" width="<width>"/>
                  <y:NodeLabel alignment="left" autoSizePolicy="node_width" backgroundColor="#eeee80" modelName="internal" modelPosition="t">     Declarations</y:NodeLabel>
                  <y:NodeLabel alignment="left" autoSizePolicy="content" borderDistance="18" bottomInset="3" leftInset="3" modelName="internal" modelPosition="t" rightInset="3" topInset="3">...</y:NodeLabel>
                  <y:BorderStyle lineType="dashed"/>
                  <y:Fill color="#ffffcc"/>
                  <y:Shape type="rectangle"/>
                  <y:State closed="true"/>
                </y:GroupNode>
              </y:Realizers>
            </y:ProxyAutoBoundsNode>
          </data>
        </node>
        <node id="cif:aut2::loc0">
          <data key="dn">location</data>
          <data key="ng">
            <y:ShapeNode>
              <y:Geometry height="<height>" width="<width>"/>
              <y:NodeLabel alignment="left" autoSizePolicy="content" modelName="internal" modelPosition="c">&lt;html&gt;&lt;span style="color:#0000ff;"&gt;equation&lt;/span&gt;&amp;nbsp;&lt;span style="color:#000000;"&gt;c4&lt;/span&gt;&lt;span style="color:#402020;"&gt;'&lt;/span&gt;&amp;nbsp;&lt;span style="color:#402020;"&gt;=&lt;/span&gt;&amp;nbsp;&lt;span style="color:#000000;"&gt;r&lt;/span&gt;&lt;span style="color:#402020;"&gt;;&lt;/span&gt;&lt;/html&gt;</y:NodeLabel>
              <y:Fill color="#ccccff"/>
              <y:Shape type="roundrectangle"/>
            </y:ShapeNode>
          </data>
        </node>
        <node id="cif:aut2::loc0::init">
          <data key="dn">&lt;init&gt;</data>
          <data key="ng">
            <y:ShapeNode>
              <y:Geometry height="<height>" width="<width>"/>
              <y:BorderStyle hasColor="false"/>
              <y:Fill transparent="true"/>
            </y:ShapeNode>
          </data>
        </node>
        <edge source="cif:aut2::loc0::init" target="cif:aut2::loc0">
          <data key="eg">
            <y:PolyLineEdge>
              <y:Arrows source="none" target="arrow"/>
              <y:BendStyle smoothed="true"/>
            </y:PolyLineEdge>
          </data>
        </edge>
      </graph>
    </node>
    <node id="cif:aut3" yfiles.foldertype="group">
      <data key="dn">automaton aut3</data>
      <data key="ng">
        <y:ProxyAutoBoundsNode>
          <y:Realizers active="0">
            <y:GroupNode>
              <y:NodeLabel alignment="left" autoSizePolicy="node_width" backgroundColor="#ff0000" fontStyle="plain" modelName="internal" modelPosition="t">&lt;html&gt;&amp;nbsp;&amp;nbsp;&amp;nbsp;&amp;nbsp;&amp;nbsp;&lt;span style="color:#0000ff;"&gt;automaton&lt;/span&gt;&amp;nbsp;&lt;span style="color:#000000;"&gt;aut3&lt;/span&gt;&lt;/html&gt;</y:NodeLabel>
              <y:Fill color="#eeeeee"/>
              <y:Shape type="rectangle"/>
              <y:State closed="false"/>
            </y:GroupNode>
            <y:GroupNode>
              <y:Geometry height="<height>" width="<width>"/>
              <y:NodeLabel alignment="left" autoSizePolicy="node_width" backgroundColor="#ff0000" fontStyle="plain" modelName="internal" modelPosition="t">&lt;html&gt;&amp;nbsp;&amp;nbsp;&amp;nbsp;&amp;nbsp;&amp;nbsp;&lt;span style="color:#0000ff;"&gt;automaton&lt;/span&gt;&amp;nbsp;&lt;span style="color:#000000;"&gt;aut3&lt;/span&gt;&lt;/html&gt;</y:NodeLabel>
              <y:Fill color="#cccccc"/>
              <y:Shape type="rectangle"/>
              <y:State closed="true"/>
            </y:GroupNode>
          </y:Realizers>
        </y:ProxyAutoBoundsNode>
      </data>
      <graph edgedefault="directed" id="cif:aut3:">
        <node id="cif:aut3::code" yfiles.foldertype="group">
          <data key="dn">Declarations</data>
          <data key="ng">
            <y:ProxyAutoBoundsNode>
              <y:Realizers active="0">
                <y:GroupNode>
                  <y:Geometry height="<height>" width="<width>"/>
                  <y:NodeLabel alignment="left" autoSizePolicy="node_width" backgroundColor="#eeee80" modelName="internal" modelPosition="t">     Declarations</y:NodeLabel>
                  <y:NodeLabel alignment="left" autoSizePolicy="content" borderDistance="18" bottomInset="3" leftInset="3" modelName="internal" modelPosition="t" rightInset="3" topInset="3">&lt;html&gt;&lt;span style="color:#0000ff;"&gt;disc&lt;/span&gt;&amp;nbsp;&lt;span style="color:#0000ff;"&gt;int&lt;/span&gt;&amp;nbsp;&lt;span style="color:#000000;"&gt;z&lt;/span&gt;&amp;nbsp;&lt;span style="color:#402020;"&gt;=&lt;/span&gt;&amp;nbsp;&lt;span style="color:#000000;"&gt;y&lt;/span&gt;&lt;span style="color:#402020;"&gt;;&lt;/span&gt;&lt;br&gt;&lt;span style="color:#0000ff;"&gt;disc&lt;/span&gt;&amp;nbsp;&lt;span style="color:#0000ff;"&gt;int&lt;/span&gt;&amp;nbsp;&lt;span style="color:#000000;"&gt;x&lt;/span&gt;&amp;nbsp;&lt;span style="color:#402020;"&gt;=&lt;/span&gt;&amp;nbsp;&lt;span style="color:#000000;"&gt;y&lt;/span&gt;&amp;nbsp;&lt;span style="color:#402020;"&gt;+&lt;/span&gt;&amp;nbsp;&lt;span style="color:#000000;"&gt;z&lt;/span&gt;&lt;span style="color:#402020;"&gt;;&lt;/span&gt;&lt;br&gt;&lt;span style="color:#0000ff;"&gt;disc&lt;/span&gt;&amp;nbsp;&lt;span style="color:#0000ff;"&gt;int&lt;/span&gt;&amp;nbsp;&lt;span style="color:#000000;"&gt;y&lt;/span&gt;&amp;nbsp;&lt;span style="color:#402020;"&gt;=&lt;/span&gt;&amp;nbsp;&lt;span style="color:#006100;"&gt;5&lt;/span&gt;&lt;span style="color:#402020;"&gt;;&lt;/span&gt;&lt;/html&gt;</y:NodeLabel>
                  <y:BorderStyle lineType="dashed"/>
                  <y:Fill color="#ffffcc"/>
                  <y:Shape type="rectangle"/>
                  <y:State closed="false"/>
                </y:GroupNode>
                <y:GroupNode>
                  <y:Geometry height="<height>" width="<width>"/>
                  <y:NodeLabel alignment="left" autoSizePolicy="node_width" backgroundColor="#eeee80" modelName="internal" modelPosition="t">     Declarations</y:NodeLabel>
                  <y:NodeLabel alignment="left" autoSizePolicy="content" borderDistance="18" bottomInset="3" leftInset="3" modelName="internal" modelPosition="t" rightInset="3" topInset="3">...</y:NodeLabel>
                  <y:BorderStyle lineType="dashed"/>
                  <y:Fill color="#ffffcc"/>
                  <y:Shape type="rectangle"/>
                  <y:State closed="true"/>
                </y:GroupNode>
              </y:Realizers>
            </y:ProxyAutoBoundsNode>
          </data>
        </node>
        <node id="cif:aut3::loc0">
          <data key="dn">location</data>
          <data key="ng">
            <y:ShapeNode>
              <y:Geometry height="<height>" width="<width>"/>
              <y:NodeLabel alignment="left" autoSizePolicy="content" modelName="internal" modelPosition="c">&lt;html&gt;&lt;span style="color:#0000ff;"&gt;invariant&lt;/span&gt;&amp;nbsp;&lt;span style="color:#000000;"&gt;x&lt;/span&gt;&amp;nbsp;&lt;span style="color:#402020;"&gt;&amp;gt;&lt;/span&gt;&amp;nbsp;&lt;span style="color:#006100;"&gt;0&lt;/span&gt;&lt;span style="color:#402020;"&gt;;&lt;/span&gt;&lt;/html&gt;</y:NodeLabel>
              <y:Fill color="#ccccff"/>
              <y:Shape type="roundrectangle"/>
            </y:ShapeNode>
          </data>
        </node>
        <node id="cif:aut3::loc0::init">
          <data key="dn">&lt;init&gt;</data>
          <data key="ng">
            <y:ShapeNode>
              <y:Geometry height="<height>" width="<width>"/>
              <y:BorderStyle hasColor="false"/>
              <y:Fill transparent="true"/>
            </y:ShapeNode>
          </data>
        </node>
        <edge source="cif:aut3::loc0::init" target="cif:aut3::loc0">
          <data key="eg">
            <y:PolyLineEdge>
              <y:Arrows source="none" target="arrow"/>
              <y:BendStyle smoothed="true"/>
            </y:PolyLineEdge>
          </data>
        </edge>
      </graph>
    </node>
    <node id="cif:aut4" yfiles.foldertype="group">
      <data key="dn">automaton aut4</data>
      <data key="ng">
        <y:ProxyAutoBoundsNode>
          <y:Realizers active="0">
            <y:GroupNode>
              <y:NodeLabel alignment="left" autoSizePolicy="node_width" backgroundColor="#ff0000" fontStyle="plain" modelName="internal" modelPosition="t">&lt;html&gt;&amp;nbsp;&amp;nbsp;&amp;nbsp;&amp;nbsp;&amp;nbsp;&lt;span style="color:#0000ff;"&gt;automaton&lt;/span&gt;&amp;nbsp;&lt;span style="color:#000000;"&gt;aut4&lt;/span&gt;&lt;/html&gt;</y:NodeLabel>
              <y:Fill color="#eeeeee"/>
              <y:Shape type="rectangle"/>
              <y:State closed="false"/>
            </y:GroupNode>
            <y:GroupNode>
              <y:Geometry height="<height>" width="<width>"/>
              <y:NodeLabel alignment="left" autoSizePolicy="node_width" backgroundColor="#ff0000" fontStyle="plain" modelName="internal" modelPosition="t">&lt;html&gt;&amp;nbsp;&amp;nbsp;&amp;nbsp;&amp;nbsp;&amp;nbsp;&lt;span style="color:#0000ff;"&gt;automaton&lt;/span&gt;&amp;nbsp;&lt;span style="color:#000000;"&gt;aut4&lt;/span&gt;&lt;/html&gt;</y:NodeLabel>
              <y:Fill color="#cccccc"/>
              <y:Shape type="rectangle"/>
              <y:State closed="true"/>
            </y:GroupNode>
          </y:Realizers>
        </y:ProxyAutoBoundsNode>
      </data>
      <graph edgedefault="directed" id="cif:aut4:">
        <node id="cif:aut4::code" yfiles.foldertype="group">
          <data key="dn">Declarations</data>
          <data key="ng">
            <y:ProxyAutoBoundsNode>
              <y:Realizers active="0">
                <y:GroupNode>
                  <y:Geometry height="<height>" width="<width>"/>
                  <y:NodeLabel alignment="left" autoSizePolicy="node_width" backgroundColor="#eeee80" modelName="internal" modelPosition="t">     Declarations</y:NodeLabel>
                  <y:NodeLabel alignment="left" autoSizePolicy="content" borderDistance="18" bottomInset="3" leftInset="3" modelName="internal" modelPosition="t" rightInset="3" topInset="3">&lt;html&gt;&lt;span style="color:#0000ff;"&gt;alg&lt;/span&gt;&amp;nbsp;&lt;span style="color:#0000ff;"&gt;bool&lt;/span&gt;&amp;nbsp;&lt;span style="color:#000000;"&gt;b1&lt;/span&gt;&amp;nbsp;&lt;span style="color:#402020;"&gt;=&lt;/span&gt;&amp;nbsp;&lt;span style="color:#000000;"&gt;l1&lt;/span&gt;&lt;span style="color:#402020;"&gt;;&lt;/span&gt;&lt;/html&gt;</y:NodeLabel>
                  <y:BorderStyle lineType="dashed"/>
                  <y:Fill color="#ffffcc"/>
                  <y:Shape type="rectangle"/>
                  <y:State closed="false"/>
                </y:GroupNode>
                <y:GroupNode>
                  <y:Geometry height="<height>" width="<width>"/>
                  <y:NodeLabel alignment="left" autoSizePolicy="node_width" backgroundColor="#eeee80" modelName="internal" modelPosition="t">     Declarations</y:NodeLabel>
                  <y:NodeLabel alignment="left" autoSizePolicy="content" borderDistance="18" bottomInset="3" leftInset="3" modelName="internal" modelPosition="t" rightInset="3" topInset="3">...</y:NodeLabel>
                  <y:BorderStyle lineType="dashed"/>
                  <y:Fill color="#ffffcc"/>
                  <y:Shape type="rectangle"/>
                  <y:State closed="true"/>
                </y:GroupNode>
              </y:Realizers>
            </y:ProxyAutoBoundsNode>
          </data>
        </node>
        <node id="cif:aut4::loc0">
          <data key="dn">location l1</data>
          <data key="ng">
            <y:ShapeNode>
              <y:Geometry height="<height>" width="<width>"/>
              <y:NodeLabel alignment="left" autoSizePolicy="content" modelName="internal" modelPosition="c">&lt;html&gt;&lt;span style="color:#000000;"&gt;l1&lt;/span&gt;&lt;br&gt;&lt;br&gt;&lt;span style="color:#0000ff;"&gt;invariant&lt;/span&gt;&amp;nbsp;&lt;span style="color:#000000;"&gt;b1&lt;/span&gt;&lt;span style="color:#402020;"&gt;;&lt;/span&gt;&lt;/html&gt;</y:NodeLabel>
              <y:Fill color="#ccccff"/>
              <y:Shape type="roundrectangle"/>
            </y:ShapeNode>
          </data>
        </node>
        <node id="cif:aut4::loc0::init">
          <data key="dn">&lt;init&gt;</data>
          <data key="ng">
            <y:ShapeNode>
              <y:Geometry height="<height>" width="<width>"/>
              <y:BorderStyle hasColor="false"/>
              <y:Fill transparent="true"/>
            </y:ShapeNode>
          </data>
        </node>
        <edge source="cif:aut4::loc0::init" target="cif:aut4::loc0">
          <data key="eg">
            <y:PolyLineEdge>
              <y:Arrows source="none" target="arrow"/>
              <y:BendStyle smoothed="true"/>
            </y:PolyLineEdge>
          </data>
        </edge>
        <edge source="cif:aut4::loc0" target="cif:aut4::loc0">
          <data key="eg">
            <y:PolyLineEdge>
              <y:Arrows source="none" target="arrow"/>
              <y:BendStyle smoothed="true"/>
              <y:EdgeLabel alignment="center" backgroundColor="#eeeeee">&lt;html&gt;&lt;span style="color:#0000ff;"&gt;when&lt;/span&gt;&amp;nbsp;&lt;span style="color:#000000;"&gt;b1&lt;/span&gt;&lt;/html&gt;</y:EdgeLabel>
            </y:PolyLineEdge>
          </data>
        </edge>
      </graph>
    </node>
    <node id="cif::insts" yfiles.foldertype="group">
      <data key="dn">Instantiations</data>
      <data key="ng">
        <y:ProxyAutoBoundsNode>
          <y:Realizers active="0">
            <y:GroupNode>
              <y:Geometry height="<height>" width="<width>"/>
              <y:NodeLabel alignment="left" autoSizePolicy="node_width" backgroundColor="#ff8000" modelName="internal" modelPosition="t">     Instantiations</y:NodeLabel>
              <y:NodeLabel alignment="left" autoSizePolicy="content" borderDistance="18" bottomInset="3" leftInset="3" modelName="internal" modelPosition="t" rightInset="3" topInset="3">&lt;html&gt;&lt;span style="color:#000000;"&gt;a1&lt;/span&gt;&lt;span style="color:#402020;"&gt;:&lt;/span&gt;&amp;nbsp;&lt;span style="color:#000000;"&gt;A&lt;/span&gt;&lt;span style="color:#402020;"&gt;(&lt;/span&gt;&lt;span style="color:#000000;"&gt;a2.v&lt;/span&gt;&lt;span style="color:#402020;"&gt;);&lt;/span&gt;&lt;br&gt;&lt;span style="color:#000000;"&gt;a2&lt;/span&gt;&lt;span style="color:#402020;"&gt;:&lt;/span&gt;&amp;nbsp;&lt;span style="color:#000000;"&gt;A&lt;/span&gt;&lt;span style="color:#402020;"&gt;(&lt;/span&gt;&lt;span style="color:#000000;"&gt;a2.v&lt;/span&gt;&lt;span style="color:#402020;"&gt;);&lt;/span&gt;&lt;br&gt;&lt;span style="color:#000000;"&gt;g1&lt;/span&gt;&lt;span style="color:#402020;"&gt;:&lt;/span&gt;&amp;nbsp;&lt;span style="color:#000000;"&gt;G&lt;/span&gt;&lt;span style="color:#402020;"&gt;(&lt;/span&gt;&lt;span style="color:#000000;"&gt;x&lt;/span&gt;&amp;nbsp;&lt;span style="color:#402020;"&gt;+&lt;/span&gt;&amp;nbsp;&lt;span style="color:#000000;"&gt;x&lt;/span&gt;&amp;nbsp;&lt;span style="color:#402020;"&gt;+&lt;/span&gt;&amp;nbsp;&lt;span style="color:#000000;"&gt;y&lt;/span&gt;&lt;span style="color:#402020;"&gt;);&lt;/span&gt;&lt;br&gt;&lt;span style="color:#000000;"&gt;g2&lt;/span&gt;&lt;span style="color:#402020;"&gt;:&lt;/span&gt;&amp;nbsp;&lt;span style="color:#000000;"&gt;G&lt;/span&gt;&lt;span style="color:#402020;"&gt;(&lt;/span&gt;&lt;span style="color:#000000;"&gt;x&lt;/span&gt;&amp;nbsp;&lt;span style="color:#402020;"&gt;*&lt;/span&gt;&amp;nbsp;&lt;span style="color:#000000;"&gt;y&lt;/span&gt;&amp;nbsp;&lt;span style="color:#402020;"&gt;*&lt;/span&gt;&amp;nbsp;&lt;span style="color:#000000;"&gt;y&lt;/span&gt;&lt;span style="color:#402020;"&gt;);&lt;/span&gt;&lt;/html&gt;</y:NodeLabel>
              <y:Fill color="#eeeeee"/>
              <y:Shape type="rectangle"/>
              <y:State closed="false"/>
            </y:GroupNode>
            <y:GroupNode>
              <y:Geometry height="<height>" width="<width>"/>
              <y:NodeLabel alignment="left" autoSizePolicy="node_width" backgroundColor="#ff8000" modelName="internal" modelPosition="t">     Instantiations</y:NodeLabel>
              <y:NodeLabel alignment="left" autoSizePolicy="content" borderDistance="18" bottomInset="3" leftInset="3" modelName="internal" modelPosition="t" rightInset="3" topInset="3">...</y:NodeLabel>
              <y:Fill color="#cccccc"/>
              <y:Shape type="rectangle"/>
              <y:State closed="true"/>
            </y:GroupNode>
          </y:Realizers>
        </y:ProxyAutoBoundsNode>
      </data>
    </node>
    <node id="cif::code" yfiles.foldertype="group">
      <data key="dn">Declarations</data>
      <data key="ng">
        <y:ProxyAutoBoundsNode>
          <y:Realizers active="0">
            <y:GroupNode>
              <y:Geometry height="<height>" width="<width>"/>
              <y:NodeLabel alignment="left" autoSizePolicy="node_width" backgroundColor="#eeee80" modelName="internal" modelPosition="t">     Declarations</y:NodeLabel>
              <y:NodeLabel alignment="left" autoSizePolicy="content" borderDistance="18" bottomInset="3" leftInset="3" modelName="internal" modelPosition="t" rightInset="3" topInset="3">&lt;html&gt;&lt;span style="color:#0000ff;"&gt;alg&lt;/span&gt;&amp;nbsp;&lt;span style="color:#0000ff;"&gt;int&lt;/span&gt;&lt;span style="color:#402020;"&gt;[&lt;/span&gt;&lt;span style="color:#006100;"&gt;9&lt;/span&gt;&lt;span style="color:#402020;"&gt;..&lt;/span&gt;&lt;span style="color:#006100;"&gt;9&lt;/span&gt;&lt;span style="color:#402020;"&gt;]&lt;/span&gt;&amp;nbsp;&lt;span style="color:#000000;"&gt;x&lt;/span&gt;&amp;nbsp;&lt;span style="color:#402020;"&gt;=&lt;/span&gt;&amp;nbsp;&lt;span style="color:#000000;"&gt;y&lt;/span&gt;&amp;nbsp;&lt;span style="color:#402020;"&gt;+&lt;/span&gt;&amp;nbsp;&lt;span style="color:#000000;"&gt;y&lt;/span&gt;&amp;nbsp;&lt;span style="color:#402020;"&gt;+&lt;/span&gt;&amp;nbsp;&lt;span style="color:#000000;"&gt;y&lt;/span&gt;&lt;span style="color:#402020;"&gt;;&lt;/span&gt;&lt;br&gt;&lt;span style="color:#0000ff;"&gt;alg&lt;/span&gt;&amp;nbsp;&lt;span style="color:#0000ff;"&gt;int&lt;/span&gt;&lt;span style="color:#402020;"&gt;[&lt;/span&gt;&lt;span style="color:#006100;"&gt;3&lt;/span&gt;&lt;span style="color:#402020;"&gt;..&lt;/span&gt;&lt;span style="color:#006100;"&gt;3&lt;/span&gt;&lt;span style="color:#402020;"&gt;]&lt;/span&gt;&amp;nbsp;&lt;span style="color:#000000;"&gt;y&lt;/span&gt;&amp;nbsp;&lt;span style="color:#402020;"&gt;=&lt;/span&gt;&amp;nbsp;&lt;span style="color:#006100;"&gt;3&lt;/span&gt;&lt;span style="color:#402020;"&gt;;&lt;/span&gt;&lt;br&gt;&lt;span style="color:#0000ff;"&gt;func&lt;/span&gt;&amp;nbsp;&lt;span style="color:#0000ff;"&gt;int&lt;/span&gt;&amp;nbsp;&lt;span style="color:#000000;"&gt;f&lt;/span&gt;&lt;span style="color:#402020;"&gt;(&lt;/span&gt;&lt;span style="color:#0000ff;"&gt;int&lt;/span&gt;&amp;nbsp;&lt;span style="color:#000000;"&gt;a&lt;/span&gt;&lt;span style="color:#402020;"&gt;;&lt;/span&gt;&amp;nbsp;&lt;span style="color:#0000ff;"&gt;int&lt;/span&gt;&amp;nbsp;&lt;span style="color:#000000;"&gt;b&lt;/span&gt;&lt;span style="color:#402020;"&gt;):&lt;/span&gt;&lt;br&gt;&amp;nbsp;&amp;nbsp;&lt;span style="color:#0000ff;"&gt;int&lt;/span&gt;&amp;nbsp;&lt;span style="color:#000000;"&gt;c&lt;/span&gt;&amp;nbsp;&lt;span style="color:#402020;"&gt;=&lt;/span&gt;&amp;nbsp;&lt;span style="color:#000000;"&gt;a&lt;/span&gt;&amp;nbsp;&lt;span style="color:#402020;"&gt;+&lt;/span&gt;&amp;nbsp;&lt;span style="color:#000000;"&gt;b&lt;/span&gt;&lt;span style="color:#402020;"&gt;;&lt;/span&gt;&lt;br&gt;&amp;nbsp;&amp;nbsp;&lt;span style="color:#0000ff;"&gt;return&lt;/span&gt;&amp;nbsp;&lt;span style="color:#000000;"&gt;c&lt;/span&gt;&lt;span style="color:#402020;"&gt;;&lt;/span&gt;&lt;br&gt;&lt;span style="color:#0000ff;"&gt;end&lt;/span&gt;&lt;br&gt;&lt;span style="color:#0000ff;"&gt;alg&lt;/span&gt;&amp;nbsp;&lt;span style="color:#0000ff;"&gt;int&lt;/span&gt;&amp;nbsp;&lt;span style="color:#000000;"&gt;z&lt;/span&gt;&amp;nbsp;&lt;span style="color:#402020;"&gt;=&lt;/span&gt;&amp;nbsp;&lt;span style="color:#000000;"&gt;f&lt;/span&gt;&lt;span style="color:#402020;"&gt;(&lt;/span&gt;&lt;span style="color:#000000;"&gt;x&lt;/span&gt;&lt;span style="color:#402020;"&gt;,&lt;/span&gt;&amp;nbsp;&lt;span style="color:#000000;"&gt;y&lt;/span&gt;&lt;span style="color:#402020;"&gt;);&lt;/span&gt;&lt;br&gt;&lt;span style="color:#0000ff;"&gt;alg&lt;/span&gt;&amp;nbsp;&lt;span style="color:#0000ff;"&gt;real&lt;/span&gt;&amp;nbsp;&lt;span style="color:#000000;"&gt;r&lt;/span&gt;&amp;nbsp;&lt;span style="color:#402020;"&gt;=&lt;/span&gt;&amp;nbsp;&lt;span style="color:#006100;"&gt;5.0&lt;/span&gt;&lt;span style="color:#402020;"&gt;;&lt;/span&gt;&lt;br&gt;&lt;span style="color:#0000ff;"&gt;cont&lt;/span&gt;&amp;nbsp;&lt;span style="color:#000000;"&gt;c1&lt;/span&gt;&amp;nbsp;&lt;span style="color:#0000ff;"&gt;der&lt;/span&gt;&amp;nbsp;&lt;span style="color:#000000;"&gt;r&lt;/span&gt;&lt;span style="color:#402020;"&gt;;&lt;/span&gt;&lt;br&gt;&lt;span style="color:#0000ff;"&gt;cont&lt;/span&gt;&amp;nbsp;&lt;span style="color:#000000;"&gt;c2&lt;/span&gt;&lt;span style="color:#402020;"&gt;;&lt;/span&gt;&lt;br&gt;&lt;span style="color:#0000ff;"&gt;cont&lt;/span&gt;&amp;nbsp;&lt;span style="color:#000000;"&gt;c5&lt;/span&gt;&amp;nbsp;&lt;span style="color:#0000ff;"&gt;der&lt;/span&gt;&amp;nbsp;&lt;span style="color:#000000;"&gt;c6&lt;/span&gt;&lt;span style="color:#402020;"&gt;;&lt;/span&gt;&lt;br&gt;&lt;span style="color:#0000ff;"&gt;cont&lt;/span&gt;&amp;nbsp;&lt;span style="color:#000000;"&gt;c6&lt;/span&gt;&amp;nbsp;&lt;span style="color:#402020;"&gt;=&lt;/span&gt;&amp;nbsp;&lt;span style="color:#000000;"&gt;c5&lt;/span&gt;&amp;nbsp;&lt;span style="color:#0000ff;"&gt;der&lt;/span&gt;&amp;nbsp;&lt;span style="color:#006100;"&gt;1.0&lt;/span&gt;&lt;span style="color:#402020;"&gt;;&lt;/span&gt;&lt;br&gt;&lt;span style="color:#0000ff;"&gt;cont&lt;/span&gt;&amp;nbsp;&lt;span style="color:#000000;"&gt;c7&lt;/span&gt;&amp;nbsp;&lt;span style="color:#0000ff;"&gt;der&lt;/span&gt;&amp;nbsp;&lt;span style="color:#000000;"&gt;c7&lt;/span&gt;&lt;span style="color:#402020;"&gt;;&lt;/span&gt;&lt;br&gt;&lt;br&gt;&lt;span style="color:#0000ff;"&gt;equation&lt;/span&gt;&amp;nbsp;&lt;span style="color:#000000;"&gt;c2&lt;/span&gt;&lt;span style="color:#402020;"&gt;'&lt;/span&gt;&amp;nbsp;&lt;span style="color:#402020;"&gt;=&lt;/span&gt;&amp;nbsp;&lt;span style="color:#000000;"&gt;r&lt;/span&gt;&lt;span style="color:#402020;"&gt;;&lt;/span&gt;&lt;/html&gt;</y:NodeLabel>
              <y:BorderStyle lineType="dashed"/>
              <y:Fill color="#ffffcc"/>
              <y:Shape type="rectangle"/>
              <y:State closed="false"/>
            </y:GroupNode>
            <y:GroupNode>
              <y:Geometry height="<height>" width="<width>"/>
              <y:NodeLabel alignment="left" autoSizePolicy="node_width" backgroundColor="#eeee80" modelName="internal" modelPosition="t">     Declarations</y:NodeLabel>
              <y:NodeLabel alignment="left" autoSizePolicy="content" borderDistance="18" bottomInset="3" leftInset="3" modelName="internal" modelPosition="t" rightInset="3" topInset="3">...</y:NodeLabel>
              <y:BorderStyle lineType="dashed"/>
              <y:Fill color="#ffffcc"/>
              <y:Shape type="rectangle"/>
              <y:State closed="true"/>
            </y:GroupNode>
          </y:Realizers>
        </y:ProxyAutoBoundsNode>
      </data>
    </node>
  </graph>
</graphml>
