<?xml version="1.0" encoding="UTF-8" standalone="no"?>
<graphml xmlns:xsi="http://www.w3.org/2001/XMLSchema-instance" xmlns:y="http://www.yworks.com/xml/graphml" xsi:schemaLocation="http://graphml.graphdrawing.org/xmlns http://www.yworks.com/xml/schema/graphml/1.1/ygraphml.xsd" xmlns="http://graphml.graphdrawing.org/xmlns">
  <key for="node" id="ng" yfiles.type="nodegraphics"/>
  <key for="edge" id="eg" yfiles.type="edgegraphics"/>
  <key attr.name="description" attr.type="string" for="node" id="dn"/>
  <graph edgedefault="undirected" id="cif:">
    <edge directed="false" source="cif:ga:a:b:c:e" target="cif:gA:A:b:c::evtref0">
      <data key="eg">
        <y:PolyLineEdge>
          <y:Arrows source="none" target="none"/>
          <y:BendStyle smoothed="true"/>
        </y:PolyLineEdge>
      </data>
    </edge>
    <edge directed="false" source="cif:ga:a:b:c:e" target="cif:gB:B:c::evtref1">
      <data key="eg">
        <y:PolyLineEdge>
          <y:Arrows source="none" target="none"/>
          <y:BendStyle smoothed="true"/>
        </y:PolyLineEdge>
      </data>
    </edge>
    <edge directed="false" source="cif:ga:a:b:c:e" target="cif:gC:C::evtref2">
      <data key="eg">
        <y:PolyLineEdge>
          <y:Arrows source="none" target="none"/>
          <y:BendStyle smoothed="true"/>
        </y:PolyLineEdge>
      </data>
    </edge>
    <node id="cif:ga" yfiles.foldertype="folder">
      <data key="dn">group ga</data>
      <data key="ng">
        <y:ProxyAutoBoundsNode>
          <y:Realizers active="1">
            <y:GroupNode>
              <y:NodeLabel alignment="left" autoSizePolicy="node_width" backgroundColor="#ff0000" fontStyle="italic" modelName="internal" modelPosition="t">&lt;html&gt;&amp;nbsp;&amp;nbsp;&amp;nbsp;&amp;nbsp;&amp;nbsp;&lt;span style="color:#0000ff;"&gt;group&lt;/span&gt;&amp;nbsp;&lt;span style="color:#000000;"&gt;ga&lt;/span&gt;&lt;/html&gt;</y:NodeLabel>
              <y:Fill color="#eeeeee"/>
              <y:Shape type="rectangle"/>
              <y:State closed="false"/>
            </y:GroupNode>
            <y:GroupNode>
              <y:Geometry height="<height>" width="<width>"/>
              <y:NodeLabel alignment="left" autoSizePolicy="node_width" backgroundColor="#ff0000" fontStyle="italic" modelName="internal" modelPosition="t">&lt;html&gt;&amp;nbsp;&amp;nbsp;&amp;nbsp;&amp;nbsp;&amp;nbsp;&lt;span style="color:#0000ff;"&gt;group&lt;/span&gt;&amp;nbsp;&lt;span style="color:#000000;"&gt;ga&lt;/span&gt;&lt;/html&gt;</y:NodeLabel>
              <y:Fill color="#cccccc"/>
              <y:Shape type="rectangle"/>
              <y:State closed="true"/>
            </y:GroupNode>
          </y:Realizers>
        </y:ProxyAutoBoundsNode>
      </data>
      <graph edgedefault="undirected" id="cif:ga:">
        <node id="cif:ga:a" yfiles.foldertype="folder">
          <data key="dn">a: gA.A()</data>
          <data key="ng">
            <y:ProxyAutoBoundsNode>
              <y:Realizers active="1">
                <y:GroupNode>
                  <y:NodeLabel alignment="left" autoSizePolicy="node_width" backgroundColor="#ff8000" fontStyle="italic" modelName="internal" modelPosition="t">&lt;html&gt;&amp;nbsp;&amp;nbsp;&amp;nbsp;&amp;nbsp;&amp;nbsp;&lt;span style="color:#000000;"&gt;a&lt;/span&gt;&lt;span style="color:#402020;"&gt;:&lt;/span&gt;&amp;nbsp;&lt;span style="color:#000000;"&gt;gA.A&lt;/span&gt;&lt;span style="color:#402020;"&gt;()&lt;/span&gt;&lt;/html&gt;</y:NodeLabel>
                  <y:Fill color="#eeeeee"/>
                  <y:Shape type="rectangle"/>
                  <y:State closed="false"/>
                </y:GroupNode>
                <y:GroupNode>
                  <y:Geometry height="<height>" width="<width>"/>
                  <y:NodeLabel alignment="left" autoSizePolicy="node_width" backgroundColor="#ff8000" fontStyle="italic" modelName="internal" modelPosition="t">&lt;html&gt;&amp;nbsp;&amp;nbsp;&amp;nbsp;&amp;nbsp;&amp;nbsp;&lt;span style="color:#000000;"&gt;a&lt;/span&gt;&lt;span style="color:#402020;"&gt;:&lt;/span&gt;&amp;nbsp;&lt;span style="color:#000000;"&gt;gA.A&lt;/span&gt;&lt;span style="color:#402020;"&gt;()&lt;/span&gt;&lt;/html&gt;</y:NodeLabel>
                  <y:Fill color="#cccccc"/>
                  <y:Shape type="rectangle"/>
                  <y:State closed="true"/>
                </y:GroupNode>
              </y:Realizers>
            </y:ProxyAutoBoundsNode>
          </data>
          <graph edgedefault="undirected" id="cif:ga:a:">
            <node id="cif:ga:a:b" yfiles.foldertype="folder">
              <data key="dn">b: gB.B()</data>
              <data key="ng">
                <y:ProxyAutoBoundsNode>
                  <y:Realizers active="1">
                    <y:GroupNode>
                      <y:NodeLabel alignment="left" autoSizePolicy="node_width" backgroundColor="#ff8000" fontStyle="italic" modelName="internal" modelPosition="t">&lt;html&gt;&amp;nbsp;&amp;nbsp;&amp;nbsp;&amp;nbsp;&amp;nbsp;&lt;span style="color:#000000;"&gt;b&lt;/span&gt;&lt;span style="color:#402020;"&gt;:&lt;/span&gt;&amp;nbsp;&lt;span style="color:#000000;"&gt;gB.B&lt;/span&gt;&lt;span style="color:#402020;"&gt;()&lt;/span&gt;&lt;/html&gt;</y:NodeLabel>
                      <y:Fill color="#eeeeee"/>
                      <y:Shape type="rectangle"/>
                      <y:State closed="false"/>
                    </y:GroupNode>
                    <y:GroupNode>
                      <y:Geometry height="<height>" width="<width>"/>
                      <y:NodeLabel alignment="left" autoSizePolicy="node_width" backgroundColor="#ff8000" fontStyle="italic" modelName="internal" modelPosition="t">&lt;html&gt;&amp;nbsp;&amp;nbsp;&amp;nbsp;&amp;nbsp;&amp;nbsp;&lt;span style="color:#000000;"&gt;b&lt;/span&gt;&lt;span style="color:#402020;"&gt;:&lt;/span&gt;&amp;nbsp;&lt;span style="color:#000000;"&gt;gB.B&lt;/span&gt;&lt;span style="color:#402020;"&gt;()&lt;/span&gt;&lt;/html&gt;</y:NodeLabel>
                      <y:Fill color="#cccccc"/>
                      <y:Shape type="rectangle"/>
                      <y:State closed="true"/>
                    </y:GroupNode>
                  </y:Realizers>
                </y:ProxyAutoBoundsNode>
              </data>
              <graph edgedefault="undirected" id="cif:ga:a:b:">
                <node id="cif:ga:a:b:c" yfiles.foldertype="folder">
                  <data key="dn">c: gC.C()</data>
                  <data key="ng">
                    <y:ProxyAutoBoundsNode>
                      <y:Realizers active="1">
                        <y:GroupNode>
                          <y:NodeLabel alignment="left" autoSizePolicy="node_width" backgroundColor="#ff8000" fontStyle="plain" modelName="internal" modelPosition="t">&lt;html&gt;&amp;nbsp;&amp;nbsp;&amp;nbsp;&amp;nbsp;&amp;nbsp;&lt;span style="color:#000000;"&gt;c&lt;/span&gt;&lt;span style="color:#402020;"&gt;:&lt;/span&gt;&amp;nbsp;&lt;span style="color:#000000;"&gt;gC.C&lt;/span&gt;&lt;span style="color:#402020;"&gt;()&lt;/span&gt;&lt;/html&gt;</y:NodeLabel>
                          <y:Fill color="#eeeeee"/>
                          <y:Shape type="rectangle"/>
                          <y:State closed="false"/>
                        </y:GroupNode>
                        <y:GroupNode>
                          <y:Geometry height="<height>" width="<width>"/>
                          <y:NodeLabel alignment="left" autoSizePolicy="node_width" backgroundColor="#ff8000" fontStyle="plain" modelName="internal" modelPosition="t">&lt;html&gt;&amp;nbsp;&amp;nbsp;&amp;nbsp;&amp;nbsp;&amp;nbsp;&lt;span style="color:#000000;"&gt;c&lt;/span&gt;&lt;span style="color:#402020;"&gt;:&lt;/span&gt;&amp;nbsp;&lt;span style="color:#000000;"&gt;gC.C&lt;/span&gt;&lt;span style="color:#402020;"&gt;()&lt;/span&gt;&lt;/html&gt;</y:NodeLabel>
                          <y:Fill color="#cccccc"/>
                          <y:Shape type="rectangle"/>
                          <y:State closed="true"/>
                        </y:GroupNode>
                      </y:Realizers>
                    </y:ProxyAutoBoundsNode>
                  </data>
                  <graph edgedefault="undirected" id="cif:ga:a:b:c:">
                    <node id="cif:ga:a:b:c:e">
                      <data key="dn">event e</data>
                      <data key="ng">
                        <y:ShapeNode>
                          <y:Geometry width="<width>"/>
                          <y:NodeLabel alignment="center">&lt;html&gt;&lt;span style="color:#0000ff;"&gt;event&lt;/span&gt;&amp;nbsp;&lt;span style="color:#000000;"&gt;e&lt;/span&gt;&lt;/html&gt;</y:NodeLabel>
                          <y:BorderStyle width="2.0"/>
                          <y:Fill color="#ffc000"/>
                          <y:Shape type="rectangle"/>
                        </y:ShapeNode>
                      </data>
                    </node>
                  </graph>
                </node>
              </graph>
            </node>
          </graph>
        </node>
      </graph>
    </node>
    <node id="cif:gC" yfiles.foldertype="folder">
      <data key="dn">group gC</data>
      <data key="ng">
        <y:ProxyAutoBoundsNode>
          <y:Realizers active="1">
            <y:GroupNode>
              <y:NodeLabel alignment="left" autoSizePolicy="node_width" backgroundColor="#ff0000" fontStyle="italic" modelName="internal" modelPosition="t">&lt;html&gt;&amp;nbsp;&amp;nbsp;&amp;nbsp;&amp;nbsp;&amp;nbsp;&lt;span style="color:#0000ff;"&gt;group&lt;/span&gt;&amp;nbsp;&lt;span style="color:#000000;"&gt;gC&lt;/span&gt;&lt;/html&gt;</y:NodeLabel>
              <y:Fill color="#eeeeee"/>
              <y:Shape type="rectangle"/>
              <y:State closed="false"/>
            </y:GroupNode>
            <y:GroupNode>
              <y:Geometry height="<height>" width="<width>"/>
              <y:NodeLabel alignment="left" autoSizePolicy="node_width" backgroundColor="#ff0000" fontStyle="italic" modelName="internal" modelPosition="t">&lt;html&gt;&amp;nbsp;&amp;nbsp;&amp;nbsp;&amp;nbsp;&amp;nbsp;&lt;span style="color:#0000ff;"&gt;group&lt;/span&gt;&amp;nbsp;&lt;span style="color:#000000;"&gt;gC&lt;/span&gt;&lt;/html&gt;</y:NodeLabel>
              <y:Fill color="#cccccc"/>
              <y:Shape type="rectangle"/>
              <y:State closed="true"/>
            </y:GroupNode>
          </y:Realizers>
        </y:ProxyAutoBoundsNode>
      </data>
      <graph edgedefault="undirected" id="cif:gC:">
        <node id="cif:gC:C" yfiles.foldertype="folder">
          <data key="dn">automaton def C()</data>
          <data key="ng">
            <y:ProxyAutoBoundsNode>
              <y:Realizers active="1">
                <y:GroupNode>
                  <y:NodeLabel alignment="left" autoSizePolicy="node_width" backgroundColor="#40c0ff" fontStyle="plain" modelName="internal" modelPosition="t">&lt;html&gt;&amp;nbsp;&amp;nbsp;&amp;nbsp;&amp;nbsp;&amp;nbsp;&lt;span style="color:#0000ff;"&gt;automaton&lt;/span&gt;&amp;nbsp;&lt;span style="color:#0000ff;"&gt;def&lt;/span&gt;&amp;nbsp;&lt;span style="color:#000000;"&gt;C&lt;/span&gt;&lt;span style="color:#402020;"&gt;()&lt;/span&gt;&lt;/html&gt;</y:NodeLabel>
                  <y:Fill color="#eeeeee"/>
                  <y:Shape type="rectangle"/>
                  <y:State closed="false"/>
                </y:GroupNode>
                <y:GroupNode>
                  <y:Geometry height="<height>" width="<width>"/>
                  <y:NodeLabel alignment="left" autoSizePolicy="node_width" backgroundColor="#40c0ff" fontStyle="plain" modelName="internal" modelPosition="t">&lt;html&gt;&amp;nbsp;&amp;nbsp;&amp;nbsp;&amp;nbsp;&amp;nbsp;&lt;span style="color:#0000ff;"&gt;automaton&lt;/span&gt;&amp;nbsp;&lt;span style="color:#0000ff;"&gt;def&lt;/span&gt;&amp;nbsp;&lt;span style="color:#000000;"&gt;C&lt;/span&gt;&lt;span style="color:#402020;"&gt;()&lt;/span&gt;&lt;/html&gt;</y:NodeLabel>
                  <y:Fill color="#cccccc"/>
                  <y:Shape type="rectangle"/>
                  <y:State closed="true"/>
                </y:GroupNode>
              </y:Realizers>
            </y:ProxyAutoBoundsNode>
          </data>
          <graph edgedefault="undirected" id="cif:gC:C:">
            <node id="cif:gC:C::evtref2">
              <data key="dn">e</data>
              <data key="ng">
                <y:ShapeNode>
                  <y:Geometry height="<height>" width="<width>"/>
                  <y:NodeLabel alignment="center" fontSize="20">&lt;html&gt;&lt;/html&gt;</y:NodeLabel>
                  <y:Fill color="#ffc080"/>
                  <y:Shape type="ellipse"/>
                </y:ShapeNode>
              </data>
            </node>
            <node id="cif:gC:C:e">
              <data key="dn">event e</data>
              <data key="ng">
                <y:ShapeNode>
                  <y:Geometry width="<width>"/>
                  <y:NodeLabel alignment="center">&lt;html&gt;&lt;span style="color:#0000ff;"&gt;event&lt;/span&gt;&amp;nbsp;&lt;span style="color:#000000;"&gt;e&lt;/span&gt;&lt;/html&gt;</y:NodeLabel>
                  <y:BorderStyle width="2.0"/>
                  <y:Fill color="#ffc000"/>
                  <y:Shape type="rectangle"/>
                </y:ShapeNode>
              </data>
            </node>
          </graph>
        </node>
      </graph>
    </node>
    <node id="cif:gB" yfiles.foldertype="folder">
      <data key="dn">group gB</data>
      <data key="ng">
        <y:ProxyAutoBoundsNode>
          <y:Realizers active="1">
            <y:GroupNode>
              <y:NodeLabel alignment="left" autoSizePolicy="node_width" backgroundColor="#ff0000" fontStyle="italic" modelName="internal" modelPosition="t">&lt;html&gt;&amp;nbsp;&amp;nbsp;&amp;nbsp;&amp;nbsp;&amp;nbsp;&lt;span style="color:#0000ff;"&gt;group&lt;/span&gt;&amp;nbsp;&lt;span style="color:#000000;"&gt;gB&lt;/span&gt;&lt;/html&gt;</y:NodeLabel>
              <y:Fill color="#eeeeee"/>
              <y:Shape type="rectangle"/>
              <y:State closed="false"/>
            </y:GroupNode>
            <y:GroupNode>
              <y:Geometry height="<height>" width="<width>"/>
              <y:NodeLabel alignment="left" autoSizePolicy="node_width" backgroundColor="#ff0000" fontStyle="italic" modelName="internal" modelPosition="t">&lt;html&gt;&amp;nbsp;&amp;nbsp;&amp;nbsp;&amp;nbsp;&amp;nbsp;&lt;span style="color:#0000ff;"&gt;group&lt;/span&gt;&amp;nbsp;&lt;span style="color:#000000;"&gt;gB&lt;/span&gt;&lt;/html&gt;</y:NodeLabel>
              <y:Fill color="#cccccc"/>
              <y:Shape type="rectangle"/>
              <y:State closed="true"/>
            </y:GroupNode>
          </y:Realizers>
        </y:ProxyAutoBoundsNode>
      </data>
      <graph edgedefault="undirected" id="cif:gB:">
        <node id="cif:gB:B" yfiles.foldertype="folder">
          <data key="dn">group def B()</data>
          <data key="ng">
            <y:ProxyAutoBoundsNode>
              <y:Realizers active="1">
                <y:GroupNode>
                  <y:NodeLabel alignment="left" autoSizePolicy="node_width" backgroundColor="#40c0ff" fontStyle="italic" modelName="internal" modelPosition="t">&lt;html&gt;&amp;nbsp;&amp;nbsp;&amp;nbsp;&amp;nbsp;&amp;nbsp;&lt;span style="color:#0000ff;"&gt;group&lt;/span&gt;&amp;nbsp;&lt;span style="color:#0000ff;"&gt;def&lt;/span&gt;&amp;nbsp;&lt;span style="color:#000000;"&gt;B&lt;/span&gt;&lt;span style="color:#402020;"&gt;()&lt;/span&gt;&lt;/html&gt;</y:NodeLabel>
                  <y:Fill color="#eeeeee"/>
                  <y:Shape type="rectangle"/>
                  <y:State closed="false"/>
                </y:GroupNode>
                <y:GroupNode>
                  <y:Geometry height="<height>" width="<width>"/>
                  <y:NodeLabel alignment="left" autoSizePolicy="node_width" backgroundColor="#40c0ff" fontStyle="italic" modelName="internal" modelPosition="t">&lt;html&gt;&amp;nbsp;&amp;nbsp;&amp;nbsp;&amp;nbsp;&amp;nbsp;&lt;span style="color:#0000ff;"&gt;group&lt;/span&gt;&amp;nbsp;&lt;span style="color:#0000ff;"&gt;def&lt;/span&gt;&amp;nbsp;&lt;span style="color:#000000;"&gt;B&lt;/span&gt;&lt;span style="color:#402020;"&gt;()&lt;/span&gt;&lt;/html&gt;</y:NodeLabel>
                  <y:Fill color="#cccccc"/>
                  <y:Shape type="rectangle"/>
                  <y:State closed="true"/>
                </y:GroupNode>
              </y:Realizers>
            </y:ProxyAutoBoundsNode>
          </data>
          <graph edgedefault="undirected" id="cif:gB:B:">
            <node id="cif:gB:B:c" yfiles.foldertype="folder">
              <data key="dn">c: gC.C()</data>
              <data key="ng">
                <y:ProxyAutoBoundsNode>
                  <y:Realizers active="1">
                    <y:GroupNode>
                      <y:NodeLabel alignment="left" autoSizePolicy="node_width" backgroundColor="#ff8000" fontStyle="plain" modelName="internal" modelPosition="t">&lt;html&gt;&amp;nbsp;&amp;nbsp;&amp;nbsp;&amp;nbsp;&amp;nbsp;&lt;span style="color:#000000;"&gt;c&lt;/span&gt;&lt;span style="color:#402020;"&gt;:&lt;/span&gt;&amp;nbsp;&lt;span style="color:#000000;"&gt;gC.C&lt;/span&gt;&lt;span style="color:#402020;"&gt;()&lt;/span&gt;&lt;/html&gt;</y:NodeLabel>
                      <y:Fill color="#eeeeee"/>
                      <y:Shape type="rectangle"/>
                      <y:State closed="false"/>
                    </y:GroupNode>
                    <y:GroupNode>
                      <y:Geometry height="<height>" width="<width>"/>
                      <y:NodeLabel alignment="left" autoSizePolicy="node_width" backgroundColor="#ff8000" fontStyle="plain" modelName="internal" modelPosition="t">&lt;html&gt;&amp;nbsp;&amp;nbsp;&amp;nbsp;&amp;nbsp;&amp;nbsp;&lt;span style="color:#000000;"&gt;c&lt;/span&gt;&lt;span style="color:#402020;"&gt;:&lt;/span&gt;&amp;nbsp;&lt;span style="color:#000000;"&gt;gC.C&lt;/span&gt;&lt;span style="color:#402020;"&gt;()&lt;/span&gt;&lt;/html&gt;</y:NodeLabel>
                      <y:Fill color="#cccccc"/>
                      <y:Shape type="rectangle"/>
                      <y:State closed="true"/>
                    </y:GroupNode>
                  </y:Realizers>
                </y:ProxyAutoBoundsNode>
              </data>
              <graph edgedefault="undirected" id="cif:gB:B:c:">
                <node id="cif:gB:B:c::evtref1">
                  <data key="dn">e</data>
                  <data key="ng">
                    <y:ShapeNode>
                      <y:Geometry height="<height>" width="<width>"/>
                      <y:NodeLabel alignment="center" fontSize="20">&lt;html&gt;&lt;/html&gt;</y:NodeLabel>
                      <y:Fill color="#ffc080"/>
                      <y:Shape type="ellipse"/>
                    </y:ShapeNode>
                  </data>
                </node>
              </graph>
            </node>
          </graph>
        </node>
      </graph>
    </node>
    <node id="cif:gA" yfiles.foldertype="folder">
      <data key="dn">group gA</data>
      <data key="ng">
        <y:ProxyAutoBoundsNode>
          <y:Realizers active="1">
            <y:GroupNode>
              <y:NodeLabel alignment="left" autoSizePolicy="node_width" backgroundColor="#ff0000" fontStyle="italic" modelName="internal" modelPosition="t">&lt;html&gt;&amp;nbsp;&amp;nbsp;&amp;nbsp;&amp;nbsp;&amp;nbsp;&lt;span style="color:#0000ff;"&gt;group&lt;/span&gt;&amp;nbsp;&lt;span style="color:#000000;"&gt;gA&lt;/span&gt;&lt;/html&gt;</y:NodeLabel>
              <y:Fill color="#eeeeee"/>
              <y:Shape type="rectangle"/>
              <y:State closed="false"/>
            </y:GroupNode>
            <y:GroupNode>
              <y:Geometry height="<height>" width="<width>"/>
              <y:NodeLabel alignment="left" autoSizePolicy="node_width" backgroundColor="#ff0000" fontStyle="italic" modelName="internal" modelPosition="t">&lt;html&gt;&amp;nbsp;&amp;nbsp;&amp;nbsp;&amp;nbsp;&amp;nbsp;&lt;span style="color:#0000ff;"&gt;group&lt;/span&gt;&amp;nbsp;&lt;span style="color:#000000;"&gt;gA&lt;/span&gt;&lt;/html&gt;</y:NodeLabel>
              <y:Fill color="#cccccc"/>
              <y:Shape type="rectangle"/>
              <y:State closed="true"/>
            </y:GroupNode>
          </y:Realizers>
        </y:ProxyAutoBoundsNode>
      </data>
      <graph edgedefault="undirected" id="cif:gA:">
        <node id="cif:gA:A" yfiles.foldertype="folder">
          <data key="dn">group def A()</data>
          <data key="ng">
            <y:ProxyAutoBoundsNode>
              <y:Realizers active="1">
                <y:GroupNode>
                  <y:NodeLabel alignment="left" autoSizePolicy="node_width" backgroundColor="#40c0ff" fontStyle="italic" modelName="internal" modelPosition="t">&lt;html&gt;&amp;nbsp;&amp;nbsp;&amp;nbsp;&amp;nbsp;&amp;nbsp;&lt;span style="color:#0000ff;"&gt;group&lt;/span&gt;&amp;nbsp;&lt;span style="color:#0000ff;"&gt;def&lt;/span&gt;&amp;nbsp;&lt;span style="color:#000000;"&gt;A&lt;/span&gt;&lt;span style="color:#402020;"&gt;()&lt;/span&gt;&lt;/html&gt;</y:NodeLabel>
                  <y:Fill color="#eeeeee"/>
                  <y:Shape type="rectangle"/>
                  <y:State closed="false"/>
                </y:GroupNode>
                <y:GroupNode>
                  <y:Geometry height="<height>" width="<width>"/>
                  <y:NodeLabel alignment="left" autoSizePolicy="node_width" backgroundColor="#40c0ff" fontStyle="italic" modelName="internal" modelPosition="t">&lt;html&gt;&amp;nbsp;&amp;nbsp;&amp;nbsp;&amp;nbsp;&amp;nbsp;&lt;span style="color:#0000ff;"&gt;group&lt;/span&gt;&amp;nbsp;&lt;span style="color:#0000ff;"&gt;def&lt;/span&gt;&amp;nbsp;&lt;span style="color:#000000;"&gt;A&lt;/span&gt;&lt;span style="color:#402020;"&gt;()&lt;/span&gt;&lt;/html&gt;</y:NodeLabel>
                  <y:Fill color="#cccccc"/>
                  <y:Shape type="rectangle"/>
                  <y:State closed="true"/>
                </y:GroupNode>
              </y:Realizers>
            </y:ProxyAutoBoundsNode>
          </data>
          <graph edgedefault="undirected" id="cif:gA:A:">
            <node id="cif:gA:A:b" yfiles.foldertype="folder">
              <data key="dn">b: gB.B()</data>
              <data key="ng">
                <y:ProxyAutoBoundsNode>
                  <y:Realizers active="1">
                    <y:GroupNode>
                      <y:NodeLabel alignment="left" autoSizePolicy="node_width" backgroundColor="#ff8000" fontStyle="italic" modelName="internal" modelPosition="t">&lt;html&gt;&amp;nbsp;&amp;nbsp;&amp;nbsp;&amp;nbsp;&amp;nbsp;&lt;span style="color:#000000;"&gt;b&lt;/span&gt;&lt;span style="color:#402020;"&gt;:&lt;/span&gt;&amp;nbsp;&lt;span style="color:#000000;"&gt;gB.B&lt;/span&gt;&lt;span style="color:#402020;"&gt;()&lt;/span&gt;&lt;/html&gt;</y:NodeLabel>
                      <y:Fill color="#eeeeee"/>
                      <y:Shape type="rectangle"/>
                      <y:State closed="false"/>
                    </y:GroupNode>
                    <y:GroupNode>
                      <y:Geometry height="<height>" width="<width>"/>
                      <y:NodeLabel alignment="left" autoSizePolicy="node_width" backgroundColor="#ff8000" fontStyle="italic" modelName="internal" modelPosition="t">&lt;html&gt;&amp;nbsp;&amp;nbsp;&amp;nbsp;&amp;nbsp;&amp;nbsp;&lt;span style="color:#000000;"&gt;b&lt;/span&gt;&lt;span style="color:#402020;"&gt;:&lt;/span&gt;&amp;nbsp;&lt;span style="color:#000000;"&gt;gB.B&lt;/span&gt;&lt;span style="color:#402020;"&gt;()&lt;/span&gt;&lt;/html&gt;</y:NodeLabel>
                      <y:Fill color="#cccccc"/>
                      <y:Shape type="rectangle"/>
                      <y:State closed="true"/>
                    </y:GroupNode>
                  </y:Realizers>
                </y:ProxyAutoBoundsNode>
              </data>
              <graph edgedefault="undirected" id="cif:gA:A:b:">
                <node id="cif:gA:A:b:c" yfiles.foldertype="folder">
                  <data key="dn">c: gC.C()</data>
                  <data key="ng">
                    <y:ProxyAutoBoundsNode>
                      <y:Realizers active="1">
                        <y:GroupNode>
                          <y:NodeLabel alignment="left" autoSizePolicy="node_width" backgroundColor="#ff8000" fontStyle="plain" modelName="internal" modelPosition="t">&lt;html&gt;&amp;nbsp;&amp;nbsp;&amp;nbsp;&amp;nbsp;&amp;nbsp;&lt;span style="color:#000000;"&gt;c&lt;/span&gt;&lt;span style="color:#402020;"&gt;:&lt;/span&gt;&amp;nbsp;&lt;span style="color:#000000;"&gt;gC.C&lt;/span&gt;&lt;span style="color:#402020;"&gt;()&lt;/span&gt;&lt;/html&gt;</y:NodeLabel>
                          <y:Fill color="#eeeeee"/>
                          <y:Shape type="rectangle"/>
                          <y:State closed="false"/>
                        </y:GroupNode>
                        <y:GroupNode>
                          <y:Geometry height="<height>" width="<width>"/>
                          <y:NodeLabel alignment="left" autoSizePolicy="node_width" backgroundColor="#ff8000" fontStyle="plain" modelName="internal" modelPosition="t">&lt;html&gt;&amp;nbsp;&amp;nbsp;&amp;nbsp;&amp;nbsp;&amp;nbsp;&lt;span style="color:#000000;"&gt;c&lt;/span&gt;&lt;span style="color:#402020;"&gt;:&lt;/span&gt;&amp;nbsp;&lt;span style="color:#000000;"&gt;gC.C&lt;/span&gt;&lt;span style="color:#402020;"&gt;()&lt;/span&gt;&lt;/html&gt;</y:NodeLabel>
                          <y:Fill color="#cccccc"/>
                          <y:Shape type="rectangle"/>
                          <y:State closed="true"/>
                        </y:GroupNode>
                      </y:Realizers>
                    </y:ProxyAutoBoundsNode>
                  </data>
                  <graph edgedefault="undirected" id="cif:gA:A:b:c:">
                    <node id="cif:gA:A:b:c::evtref0">
                      <data key="dn">e</data>
                      <data key="ng">
                        <y:ShapeNode>
                          <y:Geometry height="<height>" width="<width>"/>
                          <y:NodeLabel alignment="center" fontSize="20">&lt;html&gt;&lt;/html&gt;</y:NodeLabel>
                          <y:Fill color="#ffc080"/>
                          <y:Shape type="ellipse"/>
                        </y:ShapeNode>
                      </data>
                    </node>
                  </graph>
                </node>
              </graph>
            </node>
          </graph>
        </node>
      </graph>
    </node>
  </graph>
</graphml>
