<?xml version="1.0" encoding="UTF-8" standalone="no"?>
<graphml xmlns:xsi="http://www.w3.org/2001/XMLSchema-instance" xmlns:y="http://www.yworks.com/xml/graphml" xsi:schemaLocation="http://graphml.graphdrawing.org/xmlns http://www.yworks.com/xml/schema/graphml/1.1/ygraphml.xsd" xmlns="http://graphml.graphdrawing.org/xmlns">
  <key for="node" id="ng" yfiles.type="nodegraphics"/>
  <key for="edge" id="eg" yfiles.type="edgegraphics"/>
  <key attr.name="description" attr.type="string" for="node" id="dn"/>
  <graph edgedefault="undirected" id="cif:">
    <node id="cif::box0" yfiles.foldertype="folder">
      <graph edgedefault="undirected" id="cif::box0:">
        <node id="cif:A" yfiles.foldertype="folder">
          <data key="dn">automaton def A()</data>
          <data key="ng">
            <y:ProxyAutoBoundsNode>
              <y:Realizers active="1">
                <y:GroupNode>
                  <y:NodeLabel alignment="left" autoSizePolicy="node_width" backgroundColor="#40c0ff" fontStyle="plain" modelName="internal" modelPosition="t">&lt;html&gt;&amp;nbsp;&amp;nbsp;&amp;nbsp;&amp;nbsp;&amp;nbsp;&lt;span style="color:#0000ff;"&gt;automaton&lt;/span&gt;&amp;nbsp;&lt;span style="color:#0000ff;"&gt;def&lt;/span&gt;&amp;nbsp;&lt;span style="color:#000000;"&gt;A&lt;/span&gt;&lt;span style="color:#402020;"&gt;()&lt;/span&gt;&lt;/html&gt;</y:NodeLabel>
                  <y:Fill color="#eeeeee"/>
                  <y:Shape type="rectangle"/>
                  <y:State closed="false"/>
                </y:GroupNode>
                <y:GroupNode>
                  <y:Geometry height="<height>" width="<width>"/>
                  <y:NodeLabel alignment="left" autoSizePolicy="node_width" backgroundColor="#40c0ff" fontStyle="plain" modelName="internal" modelPosition="t">&lt;html&gt;&amp;nbsp;&amp;nbsp;&amp;nbsp;&amp;nbsp;&amp;nbsp;&lt;span style="color:#0000ff;"&gt;automaton&lt;/span&gt;&amp;nbsp;&lt;span style="color:#0000ff;"&gt;def&lt;/span&gt;&amp;nbsp;&lt;span style="color:#000000;"&gt;A&lt;/span&gt;&lt;span style="color:#402020;"&gt;()&lt;/span&gt;&lt;/html&gt;</y:NodeLabel>
                  <y:Fill color="#cccccc"/>
                  <y:Shape type="rectangle"/>
                  <y:State closed="true"/>
                </y:GroupNode>
              </y:Realizers>
            </y:ProxyAutoBoundsNode>
          </data>
          <graph edgedefault="undirected" id="cif:A:">
            <node id="cif:A:e">
              <data key="dn">event e</data>
              <data key="ng">
                <y:ShapeNode>
                  <y:Geometry width="<width>"/>
                  <y:NodeLabel alignment="center">&lt;html&gt;&lt;span style="color:#0000ff;"&gt;event&lt;/span&gt;&amp;nbsp;&lt;span style="color:#000000;"&gt;e&lt;/span&gt;&lt;/html&gt;</y:NodeLabel>
                  <y:BorderStyle type="dashed"/>
                  <y:Fill color="#ffe0c0"/>
                  <y:Shape type="octagon"/>
                </y:ShapeNode>
              </data>
            </node>
            <node id="cif:A::evtref0">
              <data key="dn">e</data>
              <data key="ng">
                <y:ShapeNode>
                  <y:Geometry height="<height>" width="<width>"/>
                  <y:NodeLabel alignment="center" fontSize="20">&lt;html&gt;&lt;/html&gt;</y:NodeLabel>
                  <y:Fill color="#ffc080"/>
                  <y:Shape type="ellipse"/>
                </y:ShapeNode>
              </data>
            </node>
            <node id="cif:A:ea">
              <data key="dn">event ea</data>
              <data key="ng">
                <y:ShapeNode>
                  <y:Geometry width="<width>"/>
                  <y:NodeLabel alignment="center">&lt;html&gt;&lt;span style="color:#0000ff;"&gt;event&lt;/span&gt;&amp;nbsp;&lt;span style="color:#000000;"&gt;ea&lt;/span&gt;&lt;/html&gt;</y:NodeLabel>
                  <y:BorderStyle width="2.0"/>
                  <y:Fill color="#ffc000"/>
                  <y:Shape type="rectangle"/>
                </y:ShapeNode>
              </data>
            </node>
          </graph>
        </node>
        <node id="cif:B" yfiles.foldertype="folder">
          <data key="dn">automaton def B()</data>
          <data key="ng">
            <y:ProxyAutoBoundsNode>
              <y:Realizers active="1">
                <y:GroupNode>
                  <y:NodeLabel alignment="left" autoSizePolicy="node_width" backgroundColor="#40c0ff" fontStyle="plain" modelName="internal" modelPosition="t">&lt;html&gt;&amp;nbsp;&amp;nbsp;&amp;nbsp;&amp;nbsp;&amp;nbsp;&lt;span style="color:#0000ff;"&gt;automaton&lt;/span&gt;&amp;nbsp;&lt;span style="color:#0000ff;"&gt;def&lt;/span&gt;&amp;nbsp;&lt;span style="color:#000000;"&gt;B&lt;/span&gt;&lt;span style="color:#402020;"&gt;()&lt;/span&gt;&lt;/html&gt;</y:NodeLabel>
                  <y:Fill color="#eeeeee"/>
                  <y:Shape type="rectangle"/>
                  <y:State closed="false"/>
                </y:GroupNode>
                <y:GroupNode>
                  <y:Geometry height="<height>" width="<width>"/>
                  <y:NodeLabel alignment="left" autoSizePolicy="node_width" backgroundColor="#40c0ff" fontStyle="plain" modelName="internal" modelPosition="t">&lt;html&gt;&amp;nbsp;&amp;nbsp;&amp;nbsp;&amp;nbsp;&amp;nbsp;&lt;span style="color:#0000ff;"&gt;automaton&lt;/span&gt;&amp;nbsp;&lt;span style="color:#0000ff;"&gt;def&lt;/span&gt;&amp;nbsp;&lt;span style="color:#000000;"&gt;B&lt;/span&gt;&lt;span style="color:#402020;"&gt;()&lt;/span&gt;&lt;/html&gt;</y:NodeLabel>
                  <y:Fill color="#cccccc"/>
                  <y:Shape type="rectangle"/>
                  <y:State closed="true"/>
                </y:GroupNode>
              </y:Realizers>
            </y:ProxyAutoBoundsNode>
          </data>
          <graph edgedefault="undirected" id="cif:B:">
            <node id="cif:B:e">
              <data key="dn">event e</data>
              <data key="ng">
                <y:ShapeNode>
                  <y:Geometry width="<width>"/>
                  <y:NodeLabel alignment="center">&lt;html&gt;&lt;span style="color:#0000ff;"&gt;event&lt;/span&gt;&amp;nbsp;&lt;span style="color:#000000;"&gt;e&lt;/span&gt;&lt;/html&gt;</y:NodeLabel>
                  <y:BorderStyle type="dashed"/>
                  <y:Fill color="#ffe0c0"/>
                  <y:Shape type="octagon"/>
                </y:ShapeNode>
              </data>
            </node>
            <node id="cif:B::evtref1">
              <data key="dn">e</data>
              <data key="ng">
                <y:ShapeNode>
                  <y:Geometry height="<height>" width="<width>"/>
                  <y:NodeLabel alignment="center" fontSize="20">&lt;html&gt;&lt;/html&gt;</y:NodeLabel>
                  <y:Fill color="#ffc080"/>
                  <y:Shape type="ellipse"/>
                </y:ShapeNode>
              </data>
            </node>
            <node id="cif:B:eb">
              <data key="dn">event eb</data>
              <data key="ng">
                <y:ShapeNode>
                  <y:Geometry width="<width>"/>
                  <y:NodeLabel alignment="center">&lt;html&gt;&lt;span style="color:#0000ff;"&gt;event&lt;/span&gt;&amp;nbsp;&lt;span style="color:#000000;"&gt;eb&lt;/span&gt;&lt;/html&gt;</y:NodeLabel>
                  <y:BorderStyle width="2.0"/>
                  <y:Fill color="#ffc000"/>
                  <y:Shape type="rectangle"/>
                </y:ShapeNode>
              </data>
            </node>
          </graph>
        </node>
      </graph>
      <data key="dn">Component definitions</data>
      <data key="ng">
        <y:ProxyAutoBoundsNode>
          <y:Realizers active="1">
            <y:GroupNode>
              <y:NodeLabel alignment="left" autoSizePolicy="node_width" backgroundColor="#80ff40" modelName="internal" modelPosition="t">     Component definitions</y:NodeLabel>
              <y:Fill color="#eeeeee"/>
              <y:Shape type="rectangle"/>
              <y:State closed="false"/>
            </y:GroupNode>
            <y:GroupNode>
              <y:Geometry height="<height>" width="<width>"/>
              <y:NodeLabel alignment="left" autoSizePolicy="node_width" backgroundColor="#80ff40" modelName="internal" modelPosition="t">     Component definitions</y:NodeLabel>
              <y:Fill color="#cccccc"/>
              <y:Shape type="rectangle"/>
              <y:State closed="true"/>
            </y:GroupNode>
          </y:Realizers>
        </y:ProxyAutoBoundsNode>
      </data>
    </node>
    <node id="cif::box1" yfiles.foldertype="folder">
      <graph edgedefault="undirected" id="cif::box1:">
        <node id="cif:a2" yfiles.foldertype="folder">
          <data key="dn">a2: A()</data>
          <data key="ng">
            <y:ProxyAutoBoundsNode>
              <y:Realizers active="1">
                <y:GroupNode>
                  <y:NodeLabel alignment="left" autoSizePolicy="node_width" backgroundColor="#ff8000" fontStyle="plain" modelName="internal" modelPosition="t">&lt;html&gt;&amp;nbsp;&amp;nbsp;&amp;nbsp;&amp;nbsp;&amp;nbsp;&lt;span style="color:#000000;"&gt;a2&lt;/span&gt;&lt;span style="color:#402020;"&gt;:&lt;/span&gt;&amp;nbsp;&lt;span style="color:#000000;"&gt;A&lt;/span&gt;&lt;span style="color:#402020;"&gt;()&lt;/span&gt;&lt;/html&gt;</y:NodeLabel>
                  <y:Fill color="#eeeeee"/>
                  <y:Shape type="rectangle"/>
                  <y:State closed="false"/>
                </y:GroupNode>
                <y:GroupNode>
                  <y:Geometry height="<height>" width="<width>"/>
                  <y:NodeLabel alignment="left" autoSizePolicy="node_width" backgroundColor="#ff8000" fontStyle="plain" modelName="internal" modelPosition="t">&lt;html&gt;&amp;nbsp;&amp;nbsp;&amp;nbsp;&amp;nbsp;&amp;nbsp;&lt;span style="color:#000000;"&gt;a2&lt;/span&gt;&lt;span style="color:#402020;"&gt;:&lt;/span&gt;&amp;nbsp;&lt;span style="color:#000000;"&gt;A&lt;/span&gt;&lt;span style="color:#402020;"&gt;()&lt;/span&gt;&lt;/html&gt;</y:NodeLabel>
                  <y:Fill color="#cccccc"/>
                  <y:Shape type="rectangle"/>
                  <y:State closed="true"/>
                </y:GroupNode>
              </y:Realizers>
            </y:ProxyAutoBoundsNode>
          </data>
          <graph edgedefault="undirected" id="cif:a2:">
            <node id="cif:a2:e">
              <data key="dn">event e</data>
              <data key="ng">
                <y:ShapeNode>
                  <y:Geometry width="<width>"/>
                  <y:NodeLabel alignment="center">&lt;html&gt;&lt;span style="color:#0000ff;"&gt;event&lt;/span&gt;&amp;nbsp;&lt;span style="color:#000000;"&gt;e&lt;/span&gt;&lt;/html&gt;</y:NodeLabel>
                  <y:BorderStyle type="dashed"/>
                  <y:Fill color="#ffe0c0"/>
                  <y:Shape type="octagon"/>
                </y:ShapeNode>
              </data>
            </node>
            <node id="cif:a2:ea">
              <data key="dn">event ea</data>
              <data key="ng">
                <y:ShapeNode>
                  <y:Geometry width="<width>"/>
                  <y:NodeLabel alignment="center">&lt;html&gt;&lt;span style="color:#0000ff;"&gt;event&lt;/span&gt;&amp;nbsp;&lt;span style="color:#000000;"&gt;ea&lt;/span&gt;&lt;/html&gt;</y:NodeLabel>
                  <y:BorderStyle width="2.0"/>
                  <y:Fill color="#ffc000"/>
                  <y:Shape type="rectangle"/>
                </y:ShapeNode>
              </data>
            </node>
          </graph>
        </node>
        <node id="cif:b2" yfiles.foldertype="folder">
          <data key="dn">b2: B()</data>
          <data key="ng">
            <y:ProxyAutoBoundsNode>
              <y:Realizers active="1">
                <y:GroupNode>
                  <y:NodeLabel alignment="left" autoSizePolicy="node_width" backgroundColor="#ff8000" fontStyle="plain" modelName="internal" modelPosition="t">&lt;html&gt;&amp;nbsp;&amp;nbsp;&amp;nbsp;&amp;nbsp;&amp;nbsp;&lt;span style="color:#000000;"&gt;b2&lt;/span&gt;&lt;span style="color:#402020;"&gt;:&lt;/span&gt;&amp;nbsp;&lt;span style="color:#000000;"&gt;B&lt;/span&gt;&lt;span style="color:#402020;"&gt;()&lt;/span&gt;&lt;/html&gt;</y:NodeLabel>
                  <y:Fill color="#eeeeee"/>
                  <y:Shape type="rectangle"/>
                  <y:State closed="false"/>
                </y:GroupNode>
                <y:GroupNode>
                  <y:Geometry height="<height>" width="<width>"/>
                  <y:NodeLabel alignment="left" autoSizePolicy="node_width" backgroundColor="#ff8000" fontStyle="plain" modelName="internal" modelPosition="t">&lt;html&gt;&amp;nbsp;&amp;nbsp;&amp;nbsp;&amp;nbsp;&amp;nbsp;&lt;span style="color:#000000;"&gt;b2&lt;/span&gt;&lt;span style="color:#402020;"&gt;:&lt;/span&gt;&amp;nbsp;&lt;span style="color:#000000;"&gt;B&lt;/span&gt;&lt;span style="color:#402020;"&gt;()&lt;/span&gt;&lt;/html&gt;</y:NodeLabel>
                  <y:Fill color="#cccccc"/>
                  <y:Shape type="rectangle"/>
                  <y:State closed="true"/>
                </y:GroupNode>
              </y:Realizers>
            </y:ProxyAutoBoundsNode>
          </data>
          <graph edgedefault="undirected" id="cif:b2:">
            <node id="cif:b2:e">
              <data key="dn">event e</data>
              <data key="ng">
                <y:ShapeNode>
                  <y:Geometry width="<width>"/>
                  <y:NodeLabel alignment="center">&lt;html&gt;&lt;span style="color:#0000ff;"&gt;event&lt;/span&gt;&amp;nbsp;&lt;span style="color:#000000;"&gt;e&lt;/span&gt;&lt;/html&gt;</y:NodeLabel>
                  <y:BorderStyle type="dashed"/>
                  <y:Fill color="#ffe0c0"/>
                  <y:Shape type="octagon"/>
                </y:ShapeNode>
              </data>
            </node>
            <node id="cif:b2:eb">
              <data key="dn">event eb</data>
              <data key="ng">
                <y:ShapeNode>
                  <y:Geometry width="<width>"/>
                  <y:NodeLabel alignment="center">&lt;html&gt;&lt;span style="color:#0000ff;"&gt;event&lt;/span&gt;&amp;nbsp;&lt;span style="color:#000000;"&gt;eb&lt;/span&gt;&lt;/html&gt;</y:NodeLabel>
                  <y:BorderStyle width="2.0"/>
                  <y:Fill color="#ffc000"/>
                  <y:Shape type="rectangle"/>
                </y:ShapeNode>
              </data>
            </node>
          </graph>
        </node>
      </graph>
      <data key="dn">Components</data>
      <data key="ng">
        <y:ProxyAutoBoundsNode>
          <y:Realizers active="1">
            <y:GroupNode>
              <y:NodeLabel alignment="left" autoSizePolicy="node_width" backgroundColor="#80ff40" modelName="internal" modelPosition="t">     Components</y:NodeLabel>
              <y:Fill color="#eeeeee"/>
              <y:Shape type="rectangle"/>
              <y:State closed="false"/>
            </y:GroupNode>
            <y:GroupNode>
              <y:Geometry height="<height>" width="<width>"/>
              <y:NodeLabel alignment="left" autoSizePolicy="node_width" backgroundColor="#80ff40" modelName="internal" modelPosition="t">     Components</y:NodeLabel>
              <y:Fill color="#cccccc"/>
              <y:Shape type="rectangle"/>
              <y:State closed="true"/>
            </y:GroupNode>
          </y:Realizers>
        </y:ProxyAutoBoundsNode>
      </data>
    </node>
    <edge directed="false" source="cif:A:e" target="cif:A::evtref0">
      <data key="eg">
        <y:PolyLineEdge>
          <y:Arrows source="none" target="none"/>
          <y:BendStyle smoothed="true"/>
        </y:PolyLineEdge>
      </data>
    </edge>
    <edge directed="false" source="cif:B:e" target="cif:B::evtref1">
      <data key="eg">
        <y:PolyLineEdge>
          <y:Arrows source="none" target="none"/>
          <y:BendStyle smoothed="true"/>
        </y:PolyLineEdge>
      </data>
    </edge>
    <edge directed="false" source="cif:b2:eb" target="cif:a2:e">
      <data key="eg">
        <y:PolyLineEdge>
          <y:Arrows source="none" target="none"/>
          <y:BendStyle smoothed="true"/>
        </y:PolyLineEdge>
      </data>
    </edge>
    <edge directed="false" source="cif:a2:ea" target="cif:b2:e">
      <data key="eg">
        <y:PolyLineEdge>
          <y:Arrows source="none" target="none"/>
          <y:BendStyle smoothed="true"/>
        </y:PolyLineEdge>
      </data>
    </edge>
  </graph>
</graphml>
