<?xml version="1.0" encoding="UTF-8" standalone="no"?>
<graphml xmlns:xsi="http://www.w3.org/2001/XMLSchema-instance" xmlns:y="http://www.yworks.com/xml/graphml" xsi:schemaLocation="http://graphml.graphdrawing.org/xmlns http://www.yworks.com/xml/schema/graphml/1.1/ygraphml.xsd" xmlns="http://graphml.graphdrawing.org/xmlns">
  <key for="node" id="ng" yfiles.type="nodegraphics"/>
  <key for="edge" id="eg" yfiles.type="edgegraphics"/>
  <key attr.name="description" attr.type="string" for="node" id="dn"/>
  <graph edgedefault="directed" id="cif:">
    <node id="cif:aut" yfiles.foldertype="group">
      <data key="dn">automaton aut</data>
      <data key="ng">
        <y:ProxyAutoBoundsNode>
          <y:Realizers active="0">
            <y:GroupNode>
              <y:NodeLabel alignment="left" autoSizePolicy="node_width" backgroundColor="#ff0000" fontStyle="plain" modelName="internal" modelPosition="t">&lt;html&gt;&amp;nbsp;&amp;nbsp;&amp;nbsp;&amp;nbsp;&amp;nbsp;&lt;span style="color:#0000ff;"&gt;automaton&lt;/span&gt;&amp;nbsp;&lt;span style="color:#000000;"&gt;aut&lt;/span&gt;&lt;/html&gt;</y:NodeLabel>
              <y:Fill color="#eeeeee"/>
              <y:Shape type="rectangle"/>
              <y:State closed="false"/>
            </y:GroupNode>
            <y:GroupNode>
              <y:Geometry height="<height>" width="<width>"/>
              <y:NodeLabel alignment="left" autoSizePolicy="node_width" backgroundColor="#ff0000" fontStyle="plain" modelName="internal" modelPosition="t">&lt;html&gt;&amp;nbsp;&amp;nbsp;&amp;nbsp;&amp;nbsp;&amp;nbsp;&lt;span style="color:#0000ff;"&gt;automaton&lt;/span&gt;&amp;nbsp;&lt;span style="color:#000000;"&gt;aut&lt;/span&gt;&lt;/html&gt;</y:NodeLabel>
              <y:Fill color="#cccccc"/>
              <y:Shape type="rectangle"/>
              <y:State closed="true"/>
            </y:GroupNode>
          </y:Realizers>
        </y:ProxyAutoBoundsNode>
      </data>
      <graph edgedefault="directed" id="cif:aut:">
        <node id="cif:aut::code" yfiles.foldertype="group">
          <data key="dn">Declarations</data>
          <data key="ng">
            <y:ProxyAutoBoundsNode>
              <y:Realizers active="0">
                <y:GroupNode>
                  <y:Geometry height="<height>" width="<width>"/>
                  <y:NodeLabel alignment="left" autoSizePolicy="node_width" backgroundColor="#eeee80" modelName="internal" modelPosition="t">     Declarations</y:NodeLabel>
                  <y:NodeLabel alignment="left" autoSizePolicy="content" borderDistance="18" bottomInset="3" leftInset="3" modelName="internal" modelPosition="t" rightInset="3" topInset="3">&lt;html&gt;&lt;span style="color:#0000ff;"&gt;controllable&lt;/span&gt;&amp;nbsp;&lt;span style="color:#006100;"&gt;c_add&lt;/span&gt;&lt;span style="color:#402020;"&gt;;&lt;/span&gt;&lt;br&gt;&lt;span style="color:#0000ff;"&gt;controllable&lt;/span&gt;&amp;nbsp;&lt;span style="color:#006100;"&gt;c_remove&lt;/span&gt;&lt;span style="color:#402020;"&gt;;&lt;/span&gt;&lt;br&gt;&lt;span style="color:#0000ff;"&gt;uncontrollable&lt;/span&gt;&amp;nbsp;&lt;span style="color:#800000;"&gt;u_added&lt;/span&gt;&lt;span style="color:#402020;"&gt;;&lt;/span&gt;&lt;br&gt;&lt;span style="color:#0000ff;"&gt;uncontrollable&lt;/span&gt;&amp;nbsp;&lt;span style="color:#800000;"&gt;u_removed&lt;/span&gt;&lt;span style="color:#402020;"&gt;;&lt;/span&gt;&lt;br&gt;&lt;span style="color:#0000ff;"&gt;event&lt;/span&gt;&amp;nbsp;&lt;span style="color:#c06100;"&gt;e_update&lt;/span&gt;&lt;span style="color:#402020;"&gt;;&lt;/span&gt;&lt;br&gt;&lt;span style="color:#0000ff;"&gt;event&lt;/span&gt;&amp;nbsp;&lt;span style="color:#0000ff;"&gt;int&lt;/span&gt;&amp;nbsp;&lt;span style="color:#c06100;"&gt;e_snd&lt;/span&gt;&lt;span style="color:#402020;"&gt;;&lt;/span&gt;&lt;br&gt;&lt;span style="color:#0000ff;"&gt;event&lt;/span&gt;&amp;nbsp;&lt;span style="color:#0000ff;"&gt;int&lt;/span&gt;&amp;nbsp;&lt;span style="color:#c06100;"&gt;e_rcv&lt;/span&gt;&lt;span style="color:#402020;"&gt;;&lt;/span&gt;&lt;br&gt;&lt;span style="color:#0000ff;"&gt;disc&lt;/span&gt;&amp;nbsp;&lt;span style="color:#0000ff;"&gt;int&lt;/span&gt;&lt;span style="color:#402020;"&gt;[&lt;/span&gt;&lt;span style="color:#006100;"&gt;0&lt;/span&gt;&lt;span style="color:#402020;"&gt;..&lt;/span&gt;&lt;span style="color:#006100;"&gt;10&lt;/span&gt;&lt;span style="color:#402020;"&gt;]&lt;/span&gt;&amp;nbsp;&lt;span style="color:#000000;"&gt;x&lt;/span&gt;&lt;span style="color:#402020;"&gt;;&lt;/span&gt;&lt;br&gt;&lt;span style="color:#0000ff;"&gt;disc&lt;/span&gt;&amp;nbsp;&lt;span style="color:#0000ff;"&gt;int&lt;/span&gt;&lt;span style="color:#402020;"&gt;[&lt;/span&gt;&lt;span style="color:#006100;"&gt;0&lt;/span&gt;&lt;span style="color:#402020;"&gt;..&lt;/span&gt;&lt;span style="color:#006100;"&gt;10&lt;/span&gt;&lt;span style="color:#402020;"&gt;]&lt;/span&gt;&amp;nbsp;&lt;span style="color:#000000;"&gt;y&lt;/span&gt;&lt;span style="color:#402020;"&gt;;&lt;/span&gt;&lt;br&gt;&lt;span style="color:#0000ff;"&gt;disc&lt;/span&gt;&amp;nbsp;&lt;span style="color:#0000ff;"&gt;int&lt;/span&gt;&lt;span style="color:#402020;"&gt;[&lt;/span&gt;&lt;span style="color:#006100;"&gt;0&lt;/span&gt;&lt;span style="color:#402020;"&gt;..&lt;/span&gt;&lt;span style="color:#006100;"&gt;10&lt;/span&gt;&lt;span style="color:#402020;"&gt;]&lt;/span&gt;&amp;nbsp;&lt;span style="color:#000000;"&gt;z&lt;/span&gt;&lt;span style="color:#402020;"&gt;;&lt;/span&gt;&lt;/html&gt;</y:NodeLabel>
                  <y:BorderStyle lineType="dashed"/>
                  <y:Fill color="#ffffcc"/>
                  <y:Shape type="rectangle"/>
                  <y:State closed="false"/>
                </y:GroupNode>
                <y:GroupNode>
                  <y:Geometry height="<height>" width="<width>"/>
                  <y:NodeLabel alignment="left" autoSizePolicy="node_width" backgroundColor="#eeee80" modelName="internal" modelPosition="t">     Declarations</y:NodeLabel>
                  <y:NodeLabel alignment="left" autoSizePolicy="content" borderDistance="18" bottomInset="3" leftInset="3" modelName="internal" modelPosition="t" rightInset="3" topInset="3">...</y:NodeLabel>
                  <y:BorderStyle lineType="dashed"/>
                  <y:Fill color="#ffffcc"/>
                  <y:Shape type="rectangle"/>
                  <y:State closed="true"/>
                </y:GroupNode>
              </y:Realizers>
            </y:ProxyAutoBoundsNode>
          </data>
        </node>
        <node id="cif:aut::loc0">
          <data key="dn">location loc1</data>
          <data key="ng">
            <y:ShapeNode>
              <y:Geometry height="<height>" width="<width>"/>
              <y:NodeLabel alignment="left" autoSizePolicy="content" modelName="internal" modelPosition="c">&lt;html&gt;&lt;span style="color:#000000;"&gt;loc1&lt;/span&gt;&lt;/html&gt;</y:NodeLabel>
              <y:Fill color="#ccccff"/>
              <y:Shape type="roundrectangle"/>
            </y:ShapeNode>
          </data>
        </node>
        <node id="cif:aut::loc0::init">
          <data key="dn">&lt;init&gt;</data>
          <data key="ng">
            <y:ShapeNode>
              <y:Geometry height="<height>" width="<width>"/>
              <y:BorderStyle hasColor="false"/>
              <y:Fill transparent="true"/>
            </y:ShapeNode>
          </data>
        </node>
        <edge source="cif:aut::loc0::init" target="cif:aut::loc0">
          <data key="eg">
            <y:PolyLineEdge>
              <y:Arrows source="none" target="arrow"/>
              <y:BendStyle smoothed="true"/>
            </y:PolyLineEdge>
          </data>
        </edge>
        <edge source="cif:aut::loc0" target="cif:aut::loc1">
          <data key="eg">
            <y:PolyLineEdge>
              <y:Arrows source="none" target="arrow"/>
              <y:BendStyle smoothed="true"/>
              <y:EdgeLabel alignment="center" backgroundColor="#eeeeee">&lt;html&gt;&lt;span style="color:#006100;"&gt;c_add&lt;/span&gt;&lt;br&gt;&lt;span style="color:#0000ff;"&gt;when&lt;/span&gt;&amp;nbsp;&lt;span style="color:#000000;"&gt;x&lt;/span&gt;&amp;nbsp;&lt;span style="color:#402020;"&gt;&amp;gt;&lt;/span&gt;&amp;nbsp;&lt;span style="color:#006100;"&gt;0&lt;/span&gt;&lt;/html&gt;</y:EdgeLabel>
            </y:PolyLineEdge>
          </data>
        </edge>
        <edge source="cif:aut::loc0" target="cif:aut::loc2">
          <data key="eg">
            <y:PolyLineEdge>
              <y:Arrows source="none" target="arrow"/>
              <y:BendStyle smoothed="true"/>
              <y:EdgeLabel alignment="center" backgroundColor="#eeeeee">&lt;html&gt;&lt;span style="color:#006100;"&gt;c_remove&lt;/span&gt;&lt;/html&gt;</y:EdgeLabel>
            </y:PolyLineEdge>
          </data>
        </edge>
        <node id="cif:aut::loc1">
          <data key="dn">location loc2</data>
          <data key="ng">
            <y:ShapeNode>
              <y:Geometry height="<height>" width="<width>"/>
              <y:NodeLabel alignment="left" autoSizePolicy="content" modelName="internal" modelPosition="c">&lt;html&gt;&lt;span style="color:#000000;"&gt;loc2&lt;/span&gt;&lt;/html&gt;</y:NodeLabel>
              <y:Fill color="#ccccff"/>
              <y:Shape type="roundrectangle"/>
            </y:ShapeNode>
          </data>
        </node>
        <edge source="cif:aut::loc1" target="cif:aut::loc1">
          <data key="eg">
            <y:PolyLineEdge>
              <y:Arrows source="none" target="arrow"/>
              <y:BendStyle smoothed="true"/>
              <y:EdgeLabel alignment="center" backgroundColor="#eeeeee">&lt;html&gt;&lt;span style="color:#c06100;"&gt;e_update&lt;/span&gt;&lt;/html&gt;</y:EdgeLabel>
            </y:PolyLineEdge>
          </data>
        </edge>
        <edge source="cif:aut::loc1" target="cif:aut::loc1">
          <data key="eg">
            <y:PolyLineEdge>
              <y:Arrows source="none" target="arrow"/>
              <y:BendStyle smoothed="true"/>
              <y:EdgeLabel alignment="center" backgroundColor="#eeeeee">&lt;html&gt;&lt;span style="color:#c06100;"&gt;e_snd&lt;/span&gt;&lt;span style="color:#402020;"&gt;!&lt;/span&gt;&lt;span style="color:#000000;"&gt;x&lt;/span&gt;&lt;br&gt;&lt;span style="color:#0000ff;"&gt;when&lt;/span&gt;&amp;nbsp;&lt;span style="color:#000000;"&gt;x&lt;/span&gt;&amp;nbsp;&lt;span style="color:#402020;"&gt;&amp;gt;&lt;/span&gt;&amp;nbsp;&lt;span style="color:#006100;"&gt;0&lt;/span&gt;&lt;br&gt;&lt;span style="color:#0000ff;"&gt;now&lt;/span&gt;&lt;br&gt;&lt;span style="color:#0000ff;"&gt;do&lt;/span&gt;&amp;nbsp;&lt;span style="color:#000000;"&gt;y&lt;/span&gt;&amp;nbsp;&lt;span style="color:#402020;"&gt;:=&lt;/span&gt;&amp;nbsp;&lt;span style="color:#000000;"&gt;x&lt;/span&gt;&lt;/html&gt;</y:EdgeLabel>
            </y:PolyLineEdge>
          </data>
        </edge>
        <edge source="cif:aut::loc1" target="cif:aut::loc2">
          <data key="eg">
            <y:PolyLineEdge>
              <y:Arrows source="none" target="arrow"/>
              <y:BendStyle smoothed="true"/>
              <y:EdgeLabel alignment="center" backgroundColor="#eeeeee">&lt;html&gt;&lt;span style="color:#c06100;"&gt;e_rcv&lt;/span&gt;&lt;span style="color:#402020;"&gt;?&lt;/span&gt;&lt;br&gt;&lt;span style="color:#0000ff;"&gt;when&lt;/span&gt;&amp;nbsp;&lt;span style="color:#000000;"&gt;y&lt;/span&gt;&amp;nbsp;&lt;span style="color:#402020;"&gt;=&lt;/span&gt;&amp;nbsp;&lt;span style="color:#006100;"&gt;5&lt;/span&gt;&lt;br&gt;&lt;span style="color:#0000ff;"&gt;do&lt;/span&gt;&amp;nbsp;&lt;span style="color:#000000;"&gt;x&lt;/span&gt;&amp;nbsp;&lt;span style="color:#402020;"&gt;:=&lt;/span&gt;&amp;nbsp;&lt;span style="color:#402020;"&gt;?&lt;/span&gt;&lt;/html&gt;</y:EdgeLabel>
            </y:PolyLineEdge>
          </data>
        </edge>
        <node id="cif:aut::loc2">
          <data key="dn">location loc3</data>
          <data key="ng">
            <y:ShapeNode>
              <y:Geometry height="<height>" width="<width>"/>
              <y:NodeLabel alignment="left" autoSizePolicy="content" modelName="internal" modelPosition="c">&lt;html&gt;&lt;span style="color:#000000;"&gt;loc3&lt;/span&gt;&lt;/html&gt;</y:NodeLabel>
              <y:Fill color="#ccccff"/>
              <y:Shape type="roundrectangle"/>
            </y:ShapeNode>
          </data>
        </node>
        <edge source="cif:aut::loc2" target="cif:aut::loc3">
          <data key="eg">
            <y:PolyLineEdge>
              <y:Arrows source="none" target="arrow"/>
              <y:BendStyle smoothed="true"/>
              <y:EdgeLabel alignment="center" backgroundColor="#eeeeee">&lt;html&gt;&lt;span style="color:#800000;"&gt;u_added&lt;/span&gt;&lt;span style="color:#402020;"&gt;,&lt;/span&gt;&amp;nbsp;&lt;span style="color:#800000;"&gt;u_removed&lt;/span&gt;&lt;br&gt;&lt;span style="color:#0000ff;"&gt;do&lt;/span&gt;&amp;nbsp;&lt;span style="color:#000000;"&gt;z&lt;/span&gt;&amp;nbsp;&lt;span style="color:#402020;"&gt;:=&lt;/span&gt;&amp;nbsp;&lt;span style="color:#000000;"&gt;y&lt;/span&gt;&amp;nbsp;&lt;span style="color:#402020;"&gt;+&lt;/span&gt;&amp;nbsp;&lt;span style="color:#006100;"&gt;1&lt;/span&gt;&lt;/html&gt;</y:EdgeLabel>
            </y:PolyLineEdge>
          </data>
        </edge>
        <node id="cif:aut::loc3">
          <data key="dn">location loc4</data>
          <data key="ng">
            <y:ShapeNode>
              <y:Geometry height="<height>" width="<width>"/>
              <y:NodeLabel alignment="left" autoSizePolicy="content" modelName="internal" modelPosition="c">&lt;html&gt;&lt;span style="color:#000000;"&gt;loc4&lt;/span&gt;&lt;br&gt;&lt;br&gt;&lt;span style="color:#0000ff;"&gt;marked&lt;/span&gt;&lt;span style="color:#402020;"&gt;;&lt;/span&gt;&lt;/html&gt;</y:NodeLabel>
              <y:Fill color="#ccccff"/>
              <y:Shape type="roundrectangle"/>
            </y:ShapeNode>
          </data>
        </node>
      </graph>
    </node>
  </graph>
</graphml>
