ERROR: PLC code generation failed for CIF file "cif2plc/asgn_var_parts.cif".
CAUSE: CIF PLC code generator failed due to unsatisfied preconditions:
 - Unsupported type "list[5] int": list types are currently not supported for S7-300 output.
 - Unsupported type "list[5] int": list types are currently not supported for S7-300 output.
