Reading CIF file "datasynth/invalid4.cif".
Preprocessing CIF specification.
Converting CIF specification to internal format.

CIF variables and location pointers:
  Nr     Kind               Type       Name  Group  BDD vars  CIF values  BDD values  Values used
  -----  -----------------  ---------  ----  -----  --------  ----------  ----------  -----------
  1      discrete variable  int[0..5]  p.v1  0      3 * 2     6 * 2       8 * 2       75%
  2      discrete variable  int[0..5]  p.v2  1      3 * 2     6 * 2       8 * 2       75%
  -----  -----------------  ---------  ----  -----  --------  ----------  ----------  -----------
  Total                                      2      12        24          32          75%

Applying automatic variable ordering:
  Number of hyperedges: 2

  Applying FORCE algorithm:
    Maximum number of iterations: 10

    Total span:                    0 (total)                 0.00 (avg/edge) [before]
    Total span:                    0 (total)                 0.00 (avg/edge) [iteration 1]
    Total span:                    0 (total)                 0.00 (avg/edge) [after]

  Applying sliding window algorithm:
    Window length: 2

    Total span:                    0 (total)                 0.00 (avg/edge) [before]
    Total span:                    0 (total)                 0.00 (avg/edge) [after]

  Variable order unchanged.

