Reading CIF file "datasynth/state_plant_invs_init.cif".
Preprocessing CIF specification.
Converting CIF specification to internal format.

CIF variables and location pointers:
  Nr     Kind               Type       Name  Group  BDD vars  CIF values  BDD values  Values used
  -----  -----------------  ---------  ----  -----  --------  ----------  ----------  -----------
  1      discrete variable  int[0..2]  A.D   0      2 * 2     3 * 2       4 * 2       75%
  -----  -----------------  ---------  ----  -----  --------  ----------  ----------  -----------
  Total                                      1      4         6           8           75%

Starting data-based synthesis.

Invariant (component state plant invariant): A.D != 1
Invariant (components state plant inv):      A.D != 1
Invariant (locations state plant invariant): true
Invariant (system state plant invariant):    A.D != 1

Invariant (components state req invariant):  true
Invariant (locations state req invariant):   true
Invariant (system state req invariant):      true

Initial   (discrete variable 0):             true
Initial   (discrete variables):              true
Initial   (components init predicate):       true
Initial   (aut/locs init predicate):         true
Initial   (auts/locs init predicate):        true
Initial   (uncontrolled system):             true
Initial   (system, combined init/plant inv): A.D != 1
Initial   (system, combined init/state inv): A.D != 1

Marked    (components marker predicate):     true
Marked    (aut/locs marker predicate):       true
Marked    (auts/locs marker predicate):      true
Marked    (uncontrolled system):             true
Marked    (system, combined mark/plant inv): A.D != 1
Marked    (system, combined mark/state inv): A.D != 1

State/event exclusion plants:
  None

State/event exclusion requirements:
  None

Uncontrolled system:
  State: (controlled-behavior: ?)

Restricting behavior using state/event exclusion plants.

Restricting uncontrolled behavior using state plant invariants.

Initialized controlled-behavior predicate using invariants: true.

Extending controlled-behavior predicate using variable ranges.

Controlled behavior: true -> true [range: true, variable: discrete variable "A.D" of type "int[0..2]" (group: 0, domain: 0+1, BDD variables: 2, CIF/BDD values: 3/4)].

Extended controlled-behavior predicate using variable ranges: true.

Restricting behavior using state/event exclusion requirements.

Round 1: started.

Round 1: computing backward controlled-behavior predicate.
Backward controlled-behavior: true [marker predicate]
Backward controlled-behavior: true -> true [restricted to current/previous controlled-behavior predicate: true]
Backward reachability: iteration 1.
Backward controlled-behavior: true [fixed point].

Round 1: computing backward uncontrolled bad-state predicate.
Backward uncontrolled bad-state: false [current/previous controlled behavior predicate]
Backward reachability: iteration 1.

Round 1: computing forward controlled-behavior predicate.
Forward controlled-behavior: A.D != 1 [initialization predicate]
Forward reachability: iteration 1.
Controlled behavior: true -> A.D != 1.

Round 1: finished, need another round.

Round 2: started.

Round 2: computing backward controlled-behavior predicate.
Backward controlled-behavior: true [marker predicate]
Backward controlled-behavior: true -> A.D != 1 [restricted to current/previous controlled-behavior predicate: A.D != 1]
Backward reachability: iteration 1.
Backward controlled-behavior: A.D != 1 [fixed point].

Round 2: computing backward uncontrolled bad-state predicate.
Backward uncontrolled bad-state: A.D = 1 [current/previous controlled behavior predicate]
Backward reachability: iteration 1.

Round 2: finished, controlled behavior is stable.

Computing controlled system guards.

Final synthesis result:
  State: (controlled-behavior: A.D != 1)

Controlled system:                     exactly 2 states.

Initial (synthesis result):            A.D != 1
Initial (uncontrolled system):         true
Initial (controlled system):           A.D != 1
Initial (removed by supervisor):       A.D = 1
Initial (added by supervisor):         A.D != 1

Constructing output CIF specification.
Writing output CIF file "datasynth/state_plant_invs_init.ctrlsys.real.cif".
